VHDLcodes/014/simulation/qsim/RegisterAsynchronousEdge.msim.vcd
$comment
	File created using the following command:
		vcd file RegisterAsynchronousEdge.msim.vcd -direction
$end
$date
	Mon Jul 01 09:32:17 2024
$end
$version
	ModelSim Version 2020.1
$end
$timescale
	1ps
$end

$scope module registerasynchronousedge_vhd_vec_tst $end
$var wire 1 ! clk $end
$var wire 1 " data [2] $end
$var wire 1 # data [1] $end
$var wire 1 $ data [0] $end
$var wire 1 % Q [2] $end
$var wire 1 & Q [1] $end
$var wire 1 ' Q [0] $end
$var wire 1 ( rst $end
$var wire 1 ) set $end

$scope module i1 $end
$var wire 1 * gnd $end
$var wire 1 + vcc $end
$var wire 1 , unknown $end
$var wire 1 - devoe $end
$var wire 1 . devclrn $end
$var wire 1 / devpor $end
$var wire 1 0 ww_devoe $end
$var wire 1 1 ww_devclrn $end
$var wire 1 2 ww_devpor $end
$var wire 1 3 ww_clk $end
$var wire 1 4 ww_rst $end
$var wire 1 5 ww_set $end
$var wire 1 6 ww_data [2] $end
$var wire 1 7 ww_data [1] $end
$var wire 1 8 ww_data [0] $end
$var wire 1 9 ww_Q [2] $end
$var wire 1 : ww_Q [1] $end
$var wire 1 ; ww_Q [0] $end
$var wire 1 < \Q[0]~0clkctrl_INCLK_bus\ [3] $end
$var wire 1 = \Q[0]~0clkctrl_INCLK_bus\ [2] $end
$var wire 1 > \Q[0]~0clkctrl_INCLK_bus\ [1] $end
$var wire 1 ? \Q[0]~0clkctrl_INCLK_bus\ [0] $end
$var wire 1 @ \clk~inputclkctrl_INCLK_bus\ [3] $end
$var wire 1 A \clk~inputclkctrl_INCLK_bus\ [2] $end
$var wire 1 B \clk~inputclkctrl_INCLK_bus\ [1] $end
$var wire 1 C \clk~inputclkctrl_INCLK_bus\ [0] $end
$var wire 1 D \Q[0]~output_o\ $end
$var wire 1 E \Q[1]~output_o\ $end
$var wire 1 F \Q[2]~output_o\ $end
$var wire 1 G \rst~input_o\ $end
$var wire 1 H \clk~input_o\ $end
$var wire 1 I \clk~inputclkctrl_outclk\ $end
$var wire 1 J \set~input_o\ $end
$var wire 1 K \Q[2]~9_combout\ $end
$var wire 1 L \Q[0]~1_combout\ $end
$var wire 1 M \data[0]~input_o\ $end
$var wire 1 N \Q[0]~3_combout\ $end
$var wire 1 O \Q[0]~0_combout\ $end
$var wire 1 P \Q[0]~0clkctrl_outclk\ $end
$var wire 1 Q \Q[0]~reg0_emulated_q\ $end
$var wire 1 R \Q[0]~2_combout\ $end
$var wire 1 S \data[1]~input_o\ $end
$var wire 1 T \Q[1]~5_combout\ $end
$var wire 1 U \Q[1]~reg0_emulated_q\ $end
$var wire 1 V \Q[1]~4_combout\ $end
$var wire 1 W \data[2]~input_o\ $end
$var wire 1 X \Q[2]~7_combout\ $end
$var wire 1 Y \Q[2]~reg0_emulated_q\ $end
$var wire 1 Z \Q[2]~6_combout\ $end
$var wire 1 [ \ALT_INV_Q[0]~0clkctrl_outclk\ $end
$upscope $end
$upscope $end
$enddefinitions $end
#0
$dumpvars
0!
1(
0)
0*
1+
x,
1-
1.
1/
10
11
12
03
14
05
0D
0E
0F
1G
0H
0I
0J
0K
0L
0M
0N
1O
1P
0Q
0R
0S
0T
0U
0V
0W
0X
0Y
0Z
0[
0"
0#
0$
0%
0&
0'
06
07
08
09
0:
0;
1@
1A
1B
0C
1<
1=
1>
1?
$end
#5000
1!
1$
13
18
1M
1H
1C
1N
1I
#10000
0!
0$
1#
03
08
17
1S
0M
0H
0C
0N
1T
0I
#15000
1!
1$
13
18
1M
1H
1C
1N
1I
#20000
0!
0$
0#
1"
03
08
07
16
1W
0S
0M
0H
0C
0N
0T
1X
0I
#25000
1!
1$
13
18
1M
1H
1C
1N
1I
#30000
0!
0$
1#
03
08
17
1S
0M
0H
0C
0N
1T
0I
#35000
1!
1$
13
18
1M
1H
1C
1N
1I
#40000
0!
0$
0#
0"
03
08
07
06
0W
0S
0M
0H
0C
0N
0T
0X
0I
#45000
1!
1$
13
18
1M
1H
1C
1N
1I
#50000
0!
0$
1#
03
08
17
1S
0M
0H
0C
0N
1T
0I
#55000
1!
1$
13
18
1M
1H
1C
1N
1I
#60000
0!
0$
0#
1"
03
08
07
16
1W
0S
0M
0H
0C
0N
0T
1X
0I
#65000
1!
1$
13
18
1M
1H
1C
1N
1I
#70000
0!
0$
1#
03
08
17
1S
0M
0H
0C
0N
1T
0I
#75000
1!
1$
13
18
1M
1H
1C
1N
1I
#80000
0!
0$
0#
0"
0(
03
08
07
06
04
0G
0W
0S
0M
0H
0C
0N
0T
0X
0O
0?
0I
0P
1[
#85000
1!
1$
13
18
1M
1H
1C
1N
1I
1Q
1R
1D
1;
1'
#90000
0!
0$
1#
03
08
17
1S
0M
0H
0C
0N
1T
0I
#95000
1!
1$
13
18
1M
1H
1C
1N
1I
1U
1V
1E
1:
1&
#100000
0!
0$
0#
1"
03
08
07
16
1W
0S
0M
0H
0C
0N
0T
1X
0I
#105000
1!
1$
13
18
1M
1H
1C
1N
1I
0U
1Y
1Z
0V
0E
1F
0:
19
0&
1%
#110000
0!
0$
1#
03
08
17
1S
0M
0H
0C
0N
1T
0I
#115000
1!
1$
13
18
1M
1H
1C
1N
1I
1U
1V
1E
1:
1&
#120000
0!
0$
0#
0"
03
08
07
06
0W
0S
0M
0H
0C
0N
0T
0X
0I
#125000
1!
1$
13
18
1M
1H
1C
1N
1I
0U
0Y
0Z
0V
0E
0F
0:
09
0&
0%
#130000
0!
0$
1#
03
08
17
1S
0M
0H
0C
0N
1T
0I
#135000
1!
1$
13
18
1M
1H
1C
1N
1I
1U
1V
1E
1:
1&
#140000
0!
0$
0#
1"
03
08
07
16
1W
0S
0M
0H
0C
0N
0T
1X
0I
#145000
1!
1$
13
18
1M
1H
1C
1N
1I
0U
1Y
1Z
0V
0E
1F
0:
19
0&
1%
#150000
0!
0$
1#
03
08
17
1S
0M
0H
0C
0N
1T
0I
#155000
1!
1$
13
18
1M
1H
1C
1N
1I
1U
1V
1E
1:
1&
#160000
0!
0$
0#
0"
03
08
07
06
0W
0S
0M
0H
0C
0N
0T
0X
0I
#165000
1!
1$
13
18
1M
1H
1C
1N
1I
0U
0Y
0Z
0V
0E
0F
0:
09
0&
0%
#170000
0!
0$
1#
03
08
17
1S
0M
0H
0C
0N
1T
0I
#175000
1!
1$
13
18
1M
1H
1C
1N
1I
1U
1V
1E
1:
1&
#180000
0!
0$
0#
1"
03
08
07
16
1W
0S
0M
0H
0C
0N
0T
1X
0I
#185000
1!
1$
13
18
1M
1H
1C
1N
1I
0U
1Y
1Z
0V
0E
1F
0:
19
0&
1%
#190000
0!
0$
1#
03
08
17
1S
0M
0H
0C
0N
1T
0I
#195000
1!
1$
13
18
1M
1H
1C
1N
1I
1U
1V
1E
1:
1&
#200000
0!
0$
0#
0"
03
08
07
06
0W
0S
0M
0H
0C
0N
0T
0X
0I
#205000
1!
1$
13
18
1M
1H
1C
1N
1I
0U
0Y
0Z
0V
0E
0F
0:
09
0&
0%
#210000
0!
0$
1#
03
08
17
1S
0M
0H
0C
0N
1T
0I
#215000
1!
1$
13
18
1M
1H
1C
1N
1I
1U
1V
1E
1:
1&
#220000
0!
0$
0#
1"
03
08
07
16
1W
0S
0M
0H
0C
0N
0T
1X
0I
#225000
1!
1$
13
18
1M
1H
1C
1N
1I
0U
1Y
1Z
0V
0E
1F
0:
19
0&
1%
#230000
0!
0$
1#
03
08
17
1S
0M
0H
0C
0N
1T
0I
#235000
1!
1$
13
18
1M
1H
1C
1N
1I
1U
1V
1E
1:
1&
#240000
0!
0$
0#
0"
03
08
07
06
0W
0S
0M
0H
0C
0N
0T
0X
0I
#245000
1!
1$
13
18
1M
1H
1C
1N
1I
0U
0Y
0Z
0V
0E
0F
0:
09
0&
0%
#250000
0!
0$
1#
03
08
17
1S
0M
0H
0C
0N
1T
0I
#255000
1!
1$
13
18
1M
1H
1C
1N
1I
1U
1V
1E
1:
1&
#260000
0!
0$
0#
1"
03
08
07
16
1W
0S
0M
0H
0C
0N
0T
1X
0I
#265000
1!
1$
13
18
1M
1H
1C
1N
1I
0U
1Y
1Z
0V
0E
1F
0:
19
0&
1%
#270000
0!
0$
1#
03
08
17
1S
0M
0H
0C
0N
1T
0I
#275000
1!
1$
13
18
1M
1H
1C
1N
1I
1U
1V
1E
1:
1&
#280000
0!
0$
0#
0"
1)
03
08
07
06
15
1J
0W
0S
0M
0H
0C
0N
0T
0X
1K
1L
1O
0I
1?
1N
1T
1X
1P
0[
0Q
0U
0Y
#285000
1!
1$
13
18
1M
1H
1C
0N
1I
#290000
0!
0$
1#
03
08
17
1S
0M
0H
0C
1N
0T
0I
#295000
1!
1$
13
18
1M
1H
1C
0N
1I
#300000
0!
0$
0#
1"
03
08
07
16
1W
0S
0M
0H
0C
1N
1T
0X
0I
#305000
1!
1$
13
18
1M
1H
1C
0N
1I
#310000
0!
0$
1#
03
08
17
1S
0M
0H
0C
1N
0T
0I
#315000
1!
1$
13
18
1M
1H
1C
0N
1I
#320000
0!
0$
0#
0"
03
08
07
06
0W
0S
0M
0H
0C
1N
1T
1X
0I
#325000
1!
1$
13
18
1M
1H
1C
0N
1I
#330000
0!
0$
1#
03
08
17
1S
0M
0H
0C
1N
0T
0I
#335000
1!
1$
13
18
1M
1H
1C
0N
1I
#340000
0!
0$
0#
1"
03
08
07
16
1W
0S
0M
0H
0C
1N
1T
0X
0I
#345000
1!
1$
13
18
1M
1H
1C
0N
1I
#350000
0!
0$
1#
03
08
17
1S
0M
0H
0C
1N
0T
0I
#355000
1!
1$
13
18
1M
1H
1C
0N
1I
#360000
0!
0$
0#
0"
03
08
07
06
0W
0S
0M
0H
0C
1N
1T
1X
0I
#365000
1!
1$
13
18
1M
1H
1C
0N
1I
#370000
0!
0$
1#
03
08
17
1S
0M
0H
0C
1N
0T
0I
#375000
1!
1$
13
18
1M
1H
1C
0N
1I
#380000
0!
0$
0#
1"
03
08
07
16
1W
0S
0M
0H
0C
1N
1T
0X
0I
#385000
1!
1$
13
18
1M
1H
1C
0N
1I
#390000
0!
0$
1#
03
08
17
1S
0M
0H
0C
1N
0T
0I
#395000
1!
1$
13
18
1M
1H
1C
0N
1I
#400000
0!
0$
0#
0"
0)
03
08
07
06
05
0J
0W
0S
0M
0H
0C
1N
1T
1X
0K
0O
0I
0?
0P
1[
#405000
1!
1$
13
18
1M
1H
1C
0N
1I
1U
1Y
0Z
0V
0E
0F
0:
09
0&
0%
#410000
0!
0$
1#
03
08
17
1S
0M
0H
0C
1N
0T
0I
#415000
1!
1$
13
18
1M
1H
1C
0N
1I
0U
1V
1E
1:
1&
#420000
0!
0$
0#
1"
03
08
07
16
1W
0S
0M
0H
0C
1N
1T
0X
0I
#425000
1!
1$
13
18
1M
1H
1C
0N
1I
1U
0Y
1Z
0V
0E
1F
0:
19
0&
1%
#430000
0!
0$
1#
03
08
17
1S
0M
0H
0C
1N
0T
0I
#435000
1!
1$
13
18
1M
1H
1C
0N
1I
0U
1V
1E
1:
1&
#440000
0!
0$
0#
0"
03
08
07
06
0W
0S
0M
0H
0C
1N
1T
1X
0I
#445000
1!
1$
13
18
1M
1H
1C
0N
1I
1U
1Y
0Z
0V
0E
0F
0:
09
0&
0%
#450000
0!
0$
1#
03
08
17
1S
0M
0H
0C
1N
0T
0I
#455000
1!
1$
13
18
1M
1H
1C
0N
1I
0U
1V
1E
1:
1&
#460000
0!
0$
0#
1"
03
08
07
16
1W
0S
0M
0H
0C
1N
1T
0X
0I
#465000
1!
1$
13
18
1M
1H
1C
0N
1I
1U
0Y
1Z
0V
0E
1F
0:
19
0&
1%
#470000
0!
0$
1#
03
08
17
1S
0M
0H
0C
1N
0T
0I
#475000
1!
1$
13
18
1M
1H
1C
0N
1I
0U
1V
1E
1:
1&
#480000
0!
0$
0#
0"
03
08
07
06
0W
0S
0M
0H
0C
1N
1T
1X
0I
#485000
1!
1$
13
18
1M
1H
1C
0N
1I
1U
1Y
0Z
0V
0E
0F
0:
09
0&
0%
#490000
0!
0$
1#
03
08
17
1S
0M
0H
0C
1N
0T
0I
#495000
1!
1$
13
18
1M
1H
1C
0N
1I
0U
1V
1E
1:
1&
#500000
0!
0$
0#
1"
03
08
07
16
1W
0S
0M
0H
0C
1N
1T
0X
0I
#505000
1!
1$
13
18
1M
1H
1C
0N
1I
1U
0Y
1Z
0V
0E
1F
0:
19
0&
1%
#510000
0!
0$
1#
03
08
17
1S
0M
0H
0C
1N
0T
0I
#515000
1!
1$
13
18
1M
1H
1C
0N
1I
0U
1V
1E
1:
1&
#520000
0!
0$
0#
0"
03
08
07
06
0W
0S
0M
0H
0C
1N
1T
1X
0I
#525000
1!
1$
13
18
1M
1H
1C
0N
1I
1U
1Y
0Z
0V
0E
0F
0:
09
0&
0%
#530000
0!
0$
1#
03
08
17
1S
0M
0H
0C
1N
0T
0I
#535000
1!
1$
13
18
1M
1H
1C
0N
1I
0U
1V
1E
1:
1&
#540000
0!
0$
0#
1"
03
08
07
16
1W
0S
0M
0H
0C
1N
1T
0X
0I
#545000
1!
1$
13
18
1M
1H
1C
0N
1I
1U
0Y
1Z
0V
0E
1F
0:
19
0&
1%
#550000
0!
0$
1#
03
08
17
1S
0M
0H
0C
1N
0T
0I
#555000
1!
1$
13
18
1M
1H
1C
0N
1I
0U
1V
1E
1:
1&
#560000
0!
0$
0#
0"
03
08
07
06
0W
0S
0M
0H
0C
1N
1T
1X
0I
#565000
1!
1$
13
18
1M
1H
1C
0N
1I
1U
1Y
0Z
0V
0E
0F
0:
09
0&
0%
#570000
0!
0$
1#
03
08
17
1S
0M
0H
0C
1N
0T
0I
#575000
1!
1$
13
18
1M
1H
1C
0N
1I
0U
1V
1E
1:
1&
#580000
0!
0$
0#
1"
03
08
07
16
1W
0S
0M
0H
0C
1N
1T
0X
0I
#585000
1!
1$
13
18
1M
1H
1C
0N
1I
1U
0Y
1Z
0V
0E
1F
0:
19
0&
1%
#590000
0!
0$
1#
03
08
17
1S
0M
0H
0C
1N
0T
0I
#595000
1!
1$
13
18
1M
1H
1C
0N
1I
0U
1V
1E
1:
1&
#600000
0!
0$
0#
0"
03
08
07
06
0W
0S
0M
0H
0C
1N
1T
1X
0I
#605000
1!
1$
13
18
1M
1H
1C
0N
1I
1U
1Y
0Z
0V
0E
0F
0:
09
0&
0%
#610000
0!
0$
1#
03
08
17
1S
0M
0H
0C
1N
0T
0I
#615000
1!
1$
13
18
1M
1H
1C
0N
1I
0U
1V
1E
1:
1&
#620000
0!
0$
0#
1"
03
08
07
16
1W
0S
0M
0H
0C
1N
1T
0X
0I
#625000
1!
1$
13
18
1M
1H
1C
0N
1I
1U
0Y
1Z
0V
0E
1F
0:
19
0&
1%
#630000
0!
0$
1#
03
08
17
1S
0M
0H
0C
1N
0T
0I
#635000
1!
1$
13
18
1M
1H
1C
0N
1I
0U
1V
1E
1:
1&
#640000
0!
0$
0#
0"
03
08
07
06
0W
0S
0M
0H
0C
1N
1T
1X
0I
#645000
1!
1$
13
18
1M
1H
1C
0N
1I
1U
1Y
0Z
0V
0E
0F
0:
09
0&
0%
#650000
0!
0$
1#
03
08
17
1S
0M
0H
0C
1N
0T
0I
#655000
1!
1$
13
18
1M
1H
1C
0N
1I
0U
1V
1E
1:
1&
#660000
0!
0$
0#
1"
03
08
07
16
1W
0S
0M
0H
0C
1N
1T
0X
0I
#665000
1!
1$
13
18
1M
1H
1C
0N
1I
1U
0Y
1Z
0V
0E
1F
0:
19
0&
1%
#670000
0!
0$
1#
03
08
17
1S
0M
0H
0C
1N
0T
0I
#675000
1!
1$
13
18
1M
1H
1C
0N
1I
0U
1V
1E
1:
1&
#680000
0!
0$
0#
0"
03
08
07
06
0W
0S
0M
0H
0C
1N
1T
1X
0I
#685000
1!
1$
13
18
1M
1H
1C
0N
1I
1U
1Y
0Z
0V
0E
0F
0:
09
0&
0%
#690000
0!
0$
1#
03
08
17
1S
0M
0H
0C
1N
0T
0I
#695000
1!
1$
13
18
1M
1H
1C
0N
1I
0U
1V
1E
1:
1&
#700000
0!
0$
0#
1"
03
08
07
16
1W
0S
0M
0H
0C
1N
1T
0X
0I
#705000
1!
1$
13
18
1M
1H
1C
0N
1I
1U
0Y
1Z
0V
0E
1F
0:
19
0&
1%
#710000
0!
0$
1#
03
08
17
1S
0M
0H
0C
1N
0T
0I
#715000
1!
1$
13
18
1M
1H
1C
0N
1I
0U
1V
1E
1:
1&
#720000
0!
0$
0#
0"
03
08
07
06
0W
0S
0M
0H
0C
1N
1T
1X
0I
#725000
1!
1$
13
18
1M
1H
1C
0N
1I
1U
1Y
0Z
0V
0E
0F
0:
09
0&
0%
#730000
0!
0$
1#
03
08
17
1S
0M
0H
0C
1N
0T
0I
#735000
1!
1$
13
18
1M
1H
1C
0N
1I
0U
1V
1E
1:
1&
#740000
0!
0$
0#
1"
03
08
07
16
1W
0S
0M
0H
0C
1N
1T
0X
0I
#745000
1!
1$
13
18
1M
1H
1C
0N
1I
1U
0Y
1Z
0V
0E
1F
0:
19
0&
1%
#750000
0!
0$
1#
03
08
17
1S
0M
0H
0C
1N
0T
0I
#755000
1!
1$
13
18
1M
1H
1C
0N
1I
0U
1V
1E
1:
1&
#760000
0!
0$
0#
0"
03
08
07
06
0W
0S
0M
0H
0C
1N
1T
1X
0I
#765000
1!
1$
13
18
1M
1H
1C
0N
1I
1U
1Y
0Z
0V
0E
0F
0:
09
0&
0%
#770000
0!
0$
1#
03
08
17
1S
0M
0H
0C
1N
0T
0I
#775000
1!
1$
13
18
1M
1H
1C
0N
1I
0U
1V
1E
1:
1&
#780000
0!
0$
0#
1"
03
08
07
16
1W
0S
0M
0H
0C
1N
1T
0X
0I
#785000
1!
1$
13
18
1M
1H
1C
0N
1I
1U
0Y
1Z
0V
0E
1F
0:
19
0&
1%
#790000
0!
0$
1#
03
08
17
1S
0M
0H
0C
1N
0T
0I
#795000
1!
1$
13
18
1M
1H
1C
0N
1I
0U
1V
1E
1:
1&
#800000
0!
0$
0#
0"
03
08
07
06
0W
0S
0M
0H
0C
1N
1T
1X
0I
#805000
1!
1$
13
18
1M
1H
1C
0N
1I
1U
1Y
0Z
0V
0E
0F
0:
09
0&
0%
#810000
0!
0$
1#
03
08
17
1S
0M
0H
0C
1N
0T
0I
#815000
1!
1$
13
18
1M
1H
1C
0N
1I
0U
1V
1E
1:
1&
#820000
0!
0$
0#
1"
03
08
07
16
1W
0S
0M
0H
0C
1N
1T
0X
0I
#825000
1!
1$
13
18
1M
1H
1C
0N
1I
1U
0Y
1Z
0V
0E
1F
0:
19
0&
1%
#830000
0!
0$
1#
03
08
17
1S
0M
0H
0C
1N
0T
0I
#835000
1!
1$
13
18
1M
1H
1C
0N
1I
0U
1V
1E
1:
1&
#840000
0!
0$
0#
0"
03
08
07
06
0W
0S
0M
0H
0C
1N
1T
1X
0I
#845000
1!
1$
13
18
1M
1H
1C
0N
1I
1U
1Y
0Z
0V
0E
0F
0:
09
0&
0%
#850000
0!
0$
1#
03
08
17
1S
0M
0H
0C
1N
0T
0I
#855000
1!
1$
13
18
1M
1H
1C
0N
1I
0U
1V
1E
1:
1&
#860000
0!
0$
0#
1"
03
08
07
16
1W
0S
0M
0H
0C
1N
1T
0X
0I
#865000
1!
1$
13
18
1M
1H
1C
0N
1I
1U
0Y
1Z
0V
0E
1F
0:
19
0&
1%
#870000
0!
0$
1#
03
08
17
1S
0M
0H
0C
1N
0T
0I
#875000
1!
1$
13
18
1M
1H
1C
0N
1I
0U
1V
1E
1:
1&
#880000
0!
0$
0#
0"
03
08
07
06
0W
0S
0M
0H
0C
1N
1T
1X
0I
#885000
1!
1$
13
18
1M
1H
1C
0N
1I
1U
1Y
0Z
0V
0E
0F
0:
09
0&
0%
#890000
0!
0$
1#
03
08
17
1S
0M
0H
0C
1N
0T
0I
#895000
1!
1$
13
18
1M
1H
1C
0N
1I
0U
1V
1E
1:
1&
#900000
0!
0$
0#
1"
03
08
07
16
1W
0S
0M
0H
0C
1N
1T
0X
0I
#905000
1!
1$
13
18
1M
1H
1C
0N
1I
1U
0Y
1Z
0V
0E
1F
0:
19
0&
1%
#910000
0!
0$
1#
03
08
17
1S
0M
0H
0C
1N
0T
0I
#915000
1!
1$
13
18
1M
1H
1C
0N
1I
0U
1V
1E
1:
1&
#920000
0!
0$
0#
0"
03
08
07
06
0W
0S
0M
0H
0C
1N
1T
1X
0I
#925000
1!
1$
13
18
1M
1H
1C
0N
1I
1U
1Y
0Z
0V
0E
0F
0:
09
0&
0%
#930000
0!
0$
1#
03
08
17
1S
0M
0H
0C
1N
0T
0I
#935000
1!
1$
13
18
1M
1H
1C
0N
1I
0U
1V
1E
1:
1&
#940000
0!
0$
0#
1"
03
08
07
16
1W
0S
0M
0H
0C
1N
1T
0X
0I
#945000
1!
1$
13
18
1M
1H
1C
0N
1I
1U
0Y
1Z
0V
0E
1F
0:
19
0&
1%
#950000
0!
0$
1#
03
08
17
1S
0M
0H
0C
1N
0T
0I
#955000
1!
1$
13
18
1M
1H
1C
0N
1I
0U
1V
1E
1:
1&
#960000
0!
0$
0#
0"
03
08
07
06
0W
0S
0M
0H
0C
1N
1T
1X
0I
#965000
1!
1$
13
18
1M
1H
1C
0N
1I
1U
1Y
0Z
0V
0E
0F
0:
09
0&
0%
#970000
0!
0$
1#
03
08
17
1S
0M
0H
0C
1N
0T
0I
#975000
1!
1$
13
18
1M
1H
1C
0N
1I
0U
1V
1E
1:
1&
#980000
0!
0$
0#
1"
03
08
07
16
1W
0S
0M
0H
0C
1N
1T
0X
0I
#985000
1!
1$
13
18
1M
1H
1C
0N
1I
1U
0Y
1Z
0V
0E
1F
0:
19
0&
1%
#990000
0!
0$
1#
03
08
17
1S
0M
0H
0C
1N
0T
0I
#995000
1!
1$
13
18
1M
1H
1C
0N
1I
0U
1V
1E
1:
1&
