VHDLcodes/010/simulation/qsim/Adder_2bit_numbers.msim.vcd
$comment
	File created using the following command:
		vcd file Adder_2bit_numbers.msim.vcd -direction
$end
$date
	Fri Jun 28 07:47:40 2024
$end
$version
	ModelSim Version 2020.1
$end
$timescale
	1ps
$end

$scope module adder_2bit_numbers_vhd_vec_tst $end
$var wire 1 ! input_1 [1] $end
$var wire 1 " input_1 [0] $end
$var wire 1 # input_2 [1] $end
$var wire 1 $ input_2 [0] $end
$var wire 1 % sumResult [2] $end
$var wire 1 & sumResult [1] $end
$var wire 1 ' sumResult [0] $end

$scope module i1 $end
$var wire 1 ( gnd $end
$var wire 1 ) vcc $end
$var wire 1 * unknown $end
$var wire 1 + devoe $end
$var wire 1 , devclrn $end
$var wire 1 - devpor $end
$var wire 1 . ww_devoe $end
$var wire 1 / ww_devclrn $end
$var wire 1 0 ww_devpor $end
$var wire 1 1 ww_input_1 [1] $end
$var wire 1 2 ww_input_1 [0] $end
$var wire 1 3 ww_input_2 [1] $end
$var wire 1 4 ww_input_2 [0] $end
$var wire 1 5 ww_sumResult [2] $end
$var wire 1 6 ww_sumResult [1] $end
$var wire 1 7 ww_sumResult [0] $end
$var wire 1 8 \sumResult[0]~output_o\ $end
$var wire 1 9 \sumResult[1]~output_o\ $end
$var wire 1 : \sumResult[2]~output_o\ $end
$var wire 1 ; \input_1[0]~input_o\ $end
$var wire 1 < \input_2[0]~input_o\ $end
$var wire 1 = \Add0~0_combout\ $end
$var wire 1 > \input_2[1]~input_o\ $end
$var wire 1 ? \input_1[1]~input_o\ $end
$var wire 1 @ \Add0~1_combout\ $end
$var wire 1 A \Add0~2_combout\ $end
$upscope $end
$upscope $end
$enddefinitions $end
#0
$dumpvars
0(
1)
x*
1+
1,
1-
1.
1/
10
08
09
0:
0;
0<
0=
0>
0?
0@
0A
0!
0"
0#
0$
0%
0&
0'
01
02
03
04
05
06
07
$end
#90000
1"
12
1;
1=
18
17
1'
#170000
0"
1!
02
11
1?
0;
0=
1@
19
08
16
07
0'
1&
#240000
1"
12
1;
1=
18
17
1'
#340000
0"
0!
02
01
0?
0;
0=
0@
09
08
06
07
0'
0&
#350000
1#
13
1>
1@
19
16
1&
#440000
0#
03
0>
0@
09
06
0&
#450000
1$
14
1<
1=
18
17
1'
#540000
0$
04
0<
0=
08
07
0'
#600000
1$
1#
14
13
1>
1<
1=
1@
19
18
16
17
1'
1&
#700000
0$
0#
04
03
0>
0<
0=
0@
09
08
06
07
0'
0&
#720000
1"
1!
12
11
1?
1;
1=
1@
19
18
16
17
1'
1&
#730000
1$
1#
14
13
1>
1<
0=
1A
1:
08
15
07
0'
1%
#810000
0"
0!
02
01
0?
0;
1=
0A
0:
18
05
17
1'
0%
#830000
0$
0#
04
03
0>
0<
0=
0@
09
08
06
07
0'
0&
