VHDLcodes/011/simulation/qsim/BlinkingLED.msim.vcd
$comment
	File created using the following command:
		vcd file BlinkingLED.msim.vcd -direction
$end
$date
	Fri Jun 28 09:01:19 2024
$end
$version
	ModelSim Version 2020.1
$end
$timescale
	1ps
$end

$scope module blinkingled_vhd_vec_tst $end
$var wire 1 ! clk $end
$var wire 1 " OutLED [7] $end
$var wire 1 # OutLED [6] $end
$var wire 1 $ OutLED [5] $end
$var wire 1 % OutLED [4] $end
$var wire 1 & OutLED [3] $end
$var wire 1 ' OutLED [2] $end
$var wire 1 ( OutLED [1] $end
$var wire 1 ) OutLED [0] $end

$scope module i1 $end
$var wire 1 * gnd $end
$var wire 1 + vcc $end
$var wire 1 , unknown $end
$var wire 1 - devoe $end
$var wire 1 . devclrn $end
$var wire 1 / devpor $end
$var wire 1 0 ww_devoe $end
$var wire 1 1 ww_devclrn $end
$var wire 1 2 ww_devpor $end
$var wire 1 3 ww_clk $end
$var wire 1 4 ww_OutLED [7] $end
$var wire 1 5 ww_OutLED [6] $end
$var wire 1 6 ww_OutLED [5] $end
$var wire 1 7 ww_OutLED [4] $end
$var wire 1 8 ww_OutLED [3] $end
$var wire 1 9 ww_OutLED [2] $end
$var wire 1 : ww_OutLED [1] $end
$var wire 1 ; ww_OutLED [0] $end
$var wire 1 < \clk~inputclkctrl_INCLK_bus\ [3] $end
$var wire 1 = \clk~inputclkctrl_INCLK_bus\ [2] $end
$var wire 1 > \clk~inputclkctrl_INCLK_bus\ [1] $end
$var wire 1 ? \clk~inputclkctrl_INCLK_bus\ [0] $end
$var wire 1 @ \OutLED[0]~output_o\ $end
$var wire 1 A \OutLED[1]~output_o\ $end
$var wire 1 B \OutLED[2]~output_o\ $end
$var wire 1 C \OutLED[3]~output_o\ $end
$var wire 1 D \OutLED[4]~output_o\ $end
$var wire 1 E \OutLED[5]~output_o\ $end
$var wire 1 F \OutLED[6]~output_o\ $end
$var wire 1 G \OutLED[7]~output_o\ $end
$var wire 1 H \clk~input_o\ $end
$var wire 1 I \clk~inputclkctrl_outclk\ $end
$var wire 1 J \Add0~0_combout\ $end
$var wire 1 K \Add0~1\ $end
$var wire 1 L \Add0~2_combout\ $end
$var wire 1 M \Add0~3\ $end
$var wire 1 N \Add0~4_combout\ $end
$var wire 1 O \Add0~5\ $end
$var wire 1 P \Add0~6_combout\ $end
$var wire 1 Q \Add0~7\ $end
$var wire 1 R \Add0~8_combout\ $end
$var wire 1 S \Add0~9\ $end
$var wire 1 T \Add0~10_combout\ $end
$var wire 1 U \Add0~11\ $end
$var wire 1 V \Add0~12_combout\ $end
$var wire 1 W \Add0~13\ $end
$var wire 1 X \Add0~14_combout\ $end
$var wire 1 Y \Add0~15\ $end
$var wire 1 Z \Add0~16_combout\ $end
$var wire 1 [ \Add0~17\ $end
$var wire 1 \ \Add0~18_combout\ $end
$var wire 1 ] \Add0~19\ $end
$var wire 1 ^ \Add0~20_combout\ $end
$var wire 1 _ \Add0~21\ $end
$var wire 1 ` \Add0~22_combout\ $end
$var wire 1 a \Add0~23\ $end
$var wire 1 b \Add0~24_combout\ $end
$var wire 1 c \Add0~25\ $end
$var wire 1 d \Add0~26_combout\ $end
$var wire 1 e \Add0~27\ $end
$var wire 1 f \Add0~28_combout\ $end
$var wire 1 g \Add0~29\ $end
$var wire 1 h \Add0~30_combout\ $end
$var wire 1 i \Add0~31\ $end
$var wire 1 j \Add0~32_combout\ $end
$var wire 1 k \Add0~33\ $end
$var wire 1 l \Add0~34_combout\ $end
$var wire 1 m \Add0~35\ $end
$var wire 1 n \Add0~36_combout\ $end
$var wire 1 o \Add0~37\ $end
$var wire 1 p \Add0~38_combout\ $end
$var wire 1 q \Add0~39\ $end
$var wire 1 r \Add0~40_combout\ $end
$var wire 1 s \Add0~41\ $end
$var wire 1 t \Add0~42_combout\ $end
$var wire 1 u \Add0~43\ $end
$var wire 1 v \Add0~44_combout\ $end
$var wire 1 w \Add0~45\ $end
$var wire 1 x \Add0~46_combout\ $end
$var wire 1 y \counter[0]~2_combout\ $end
$var wire 1 z \Equal0~0_combout\ $end
$var wire 1 { \Equal0~2_combout\ $end
$var wire 1 | \Equal0~1_combout\ $end
$var wire 1 } \Equal0~3_combout\ $end
$var wire 1 ~ \counter[0]~0_combout\ $end
$var wire 1 !! \counter[0]~1_combout\ $end
$var wire 1 "! \counter[0]~3_combout\ $end
$var wire 1 #! counter [7] $end
$var wire 1 $! counter [6] $end
$var wire 1 %! counter [5] $end
$var wire 1 &! counter [4] $end
$var wire 1 '! counter [3] $end
$var wire 1 (! counter [2] $end
$var wire 1 )! counter [1] $end
$var wire 1 *! counter [0] $end
$var wire 1 +! prescale [23] $end
$var wire 1 ,! prescale [22] $end
$var wire 1 -! prescale [21] $end
$var wire 1 .! prescale [20] $end
$var wire 1 /! prescale [19] $end
$var wire 1 0! prescale [18] $end
$var wire 1 1! prescale [17] $end
$var wire 1 2! prescale [16] $end
$var wire 1 3! prescale [15] $end
$var wire 1 4! prescale [14] $end
$var wire 1 5! prescale [13] $end
$var wire 1 6! prescale [12] $end
$var wire 1 7! prescale [11] $end
$var wire 1 8! prescale [10] $end
$var wire 1 9! prescale [9] $end
$var wire 1 :! prescale [8] $end
$var wire 1 ;! prescale [7] $end
$var wire 1 <! prescale [6] $end
$var wire 1 =! prescale [5] $end
$var wire 1 >! prescale [4] $end
$var wire 1 ?! prescale [3] $end
$var wire 1 @! prescale [2] $end
$var wire 1 A! prescale [1] $end
$var wire 1 B! prescale [0] $end
$upscope $end
$upscope $end
$enddefinitions $end
#0
$dumpvars
0!
0*
1+
x,
1-
1.
1/
10
11
12
03
0@
0A
0B
0C
0D
0E
0F
0G
0H
0I
1J
0K
0L
1M
0N
0O
0P
1Q
0R
0S
0T
1U
0V
0W
0X
1Y
0Z
0[
0\
1]
0^
0_
0`
1a
0b
0c
0d
1e
0f
0g
0h
1i
0j
0k
0l
1m
0n
0o
0p
1q
0r
0s
0t
1u
0v
0w
0x
0y
1z
1{
0|
1}
1~
1!!
0"!
0"
0#
0$
0%
0&
0'
0(
0)
04
05
06
07
08
09
0:
0;
x#!
x$!
x%!
x&!
x'!
x(!
x)!
0*!
0+!
0,!
0-!
0.!
0/!
00!
01!
02!
03!
04!
05!
06!
07!
08!
09!
0:!
0;!
0<!
0=!
0>!
0?!
0@!
0A!
0B!
1<
1=
1>
0?
$end
#50000
1!
13
1H
1?
1I
1B!
0J
1K
1L
1|
0~
0|
1~
0!!
1"!
1!!
0"!
#100000
0!
03
0H
0?
0I
#150000
1!
13
1H
1?
1I
0B!
1A!
0L
0M
1J
0K
1L
1M
1N
0N
#200000
0!
03
0H
0?
0I
#250000
1!
13
1H
1?
1I
1B!
0J
1K
0L
0M
1N
1|
0~
0|
1~
0!!
1"!
1!!
0"!
#300000
0!
03
0H
0?
0I
#350000
1!
13
1H
1?
1I
0B!
0A!
1@!
0N
1O
1L
1M
1J
0K
0L
1N
0O
1P
0P
#400000
0!
03
0H
0?
0I
#450000
1!
13
1H
1?
1I
1B!
0J
1K
1L
#500000
0!
03
0H
0?
0I
#550000
1!
13
1H
1?
1I
0B!
1A!
0L
0M
1J
0K
1L
1M
0N
1O
1P
1N
0O
0P
#600000
0!
03
0H
0?
0I
#650000
1!
13
1H
1?
1I
1B!
0J
1K
0L
0M
0N
1O
1P
1|
0~
0|
1~
0!!
1"!
1!!
0"!
#700000
0!
03
0H
0?
0I
#750000
1!
13
1H
1?
1I
0B!
0A!
0@!
1?!
0P
0Q
1N
0O
1L
1M
1J
0K
0L
0N
1P
1Q
1R
0{
0R
1{
#800000
0!
03
0H
0?
0I
#850000
1!
13
1H
1?
1I
1B!
0J
1K
1L
#900000
0!
03
0H
0?
0I
#950000
1!
13
1H
1?
1I
0B!
1A!
0L
0M
1J
0K
1L
1M
1N
0N
