VHDLcodes/008/simulation/qsim/Display7Seg.msim.vcd
$comment
	File created using the following command:
		vcd file Display7Seg.msim.vcd -direction
$end
$date
	Thu Jun 27 10:25:30 2024
$end
$version
	ModelSim Version 2020.1
$end
$timescale
	1ps
$end

$scope module display7seg_vhd_vec_tst $end
$var wire 1 ! clk $end
$var wire 1 " dis7bar [6] $end
$var wire 1 # dis7bar [5] $end
$var wire 1 $ dis7bar [4] $end
$var wire 1 % dis7bar [3] $end
$var wire 1 & dis7bar [2] $end
$var wire 1 ' dis7bar [1] $end
$var wire 1 ( dis7bar [0] $end

$scope module i1 $end
$var wire 1 ) gnd $end
$var wire 1 * vcc $end
$var wire 1 + unknown $end
$var wire 1 , devoe $end
$var wire 1 - devclrn $end
$var wire 1 . devpor $end
$var wire 1 / ww_devoe $end
$var wire 1 0 ww_devclrn $end
$var wire 1 1 ww_devpor $end
$var wire 1 2 ww_clk $end
$var wire 1 3 ww_dis7bar [6] $end
$var wire 1 4 ww_dis7bar [5] $end
$var wire 1 5 ww_dis7bar [4] $end
$var wire 1 6 ww_dis7bar [3] $end
$var wire 1 7 ww_dis7bar [2] $end
$var wire 1 8 ww_dis7bar [1] $end
$var wire 1 9 ww_dis7bar [0] $end
$var wire 1 : \clk~inputclkctrl_INCLK_bus\ [3] $end
$var wire 1 ; \clk~inputclkctrl_INCLK_bus\ [2] $end
$var wire 1 < \clk~inputclkctrl_INCLK_bus\ [1] $end
$var wire 1 = \clk~inputclkctrl_INCLK_bus\ [0] $end
$var wire 1 > \dis7bar[0]~output_o\ $end
$var wire 1 ? \dis7bar[1]~output_o\ $end
$var wire 1 @ \dis7bar[2]~output_o\ $end
$var wire 1 A \dis7bar[3]~output_o\ $end
$var wire 1 B \dis7bar[4]~output_o\ $end
$var wire 1 C \dis7bar[5]~output_o\ $end
$var wire 1 D \dis7bar[6]~output_o\ $end
$var wire 1 E \clk~input_o\ $end
$var wire 1 F \clk~inputclkctrl_outclk\ $end
$var wire 1 G \counter[0]~2_combout\ $end
$var wire 1 H \counter~0_combout\ $end
$var wire 1 I \Add0~0_combout\ $end
$var wire 1 J \counter~1_combout\ $end
$var wire 1 K \Mux6~0_combout\ $end
$var wire 1 L \Mux5~0_combout\ $end
$var wire 1 M \Mux4~0_combout\ $end
$var wire 1 N \Mux3~0_combout\ $end
$var wire 1 O \Mux2~0_combout\ $end
$var wire 1 P \Mux1~0_combout\ $end
$var wire 1 Q \Mux0~0_combout\ $end
$var wire 1 R counter [3] $end
$var wire 1 S counter [2] $end
$var wire 1 T counter [1] $end
$var wire 1 U counter [0] $end
$var wire 1 V \ALT_INV_Mux0~0_combout\ $end
$var wire 1 W \ALT_INV_Mux1~0_combout\ $end
$var wire 1 X \ALT_INV_Mux2~0_combout\ $end
$var wire 1 Y \ALT_INV_Mux3~0_combout\ $end
$var wire 1 Z \ALT_INV_Mux4~0_combout\ $end
$var wire 1 [ \ALT_INV_Mux5~0_combout\ $end
$upscope $end
$upscope $end
$enddefinitions $end
#0
$dumpvars
0!
0)
1*
x+
1,
1-
1.
1/
10
11
02
0>
1?
1@
1A
1B
1C
1D
0E
0F
1G
0H
0I
0J
0K
0L
0M
0N
0O
0P
0Q
1V
1W
1X
1Y
1Z
1[
1"
1#
1$
1%
1&
1'
0(
13
14
15
16
17
18
09
0R
0S
0T
0U
1:
1;
1<
0=
$end
#5000
1!
12
1E
1=
1F
1U
0G
1H
1L
1M
1N
1Q
0V
0Y
0Z
0[
0?
0@
0A
0D
08
07
06
03
0'
0&
0%
0"
#10000
0!
02
0E
0=
0F
#15000
1!
12
1E
1=
1F
0U
1T
1G
1K
0M
0N
1O
0Q
1V
0X
1Y
1Z
1>
1@
1A
0B
1D
19
17
16
05
13
1(
1&
1%
0$
1"
#20000
0!
02
0E
0=
0F
#25000
1!
12
1E
1=
1F
1U
0G
0H
1I
1M
0O
1X
0Z
0@
1B
07
15
0&
1$
#30000
0!
02
0E
0=
0F
#35000
1!
12
1E
1=
1F
0U
0T
1S
1G
0L
1N
1Q
0V
0Y
1[
1?
0A
0D
18
06
03
1'
0%
0"
#40000
0!
02
0E
0=
0F
#45000
1!
12
1E
1=
1F
1U
0G
1H
0N
1P
0Q
1V
0W
1Y
1A
0C
1D
16
04
13
1%
0#
1"
#50000
0!
02
0E
0=
0F
#55000
1!
12
1E
1=
1F
0U
1T
1G
0M
1Z
1@
17
1&
#60000
0!
02
0E
0=
0F
#65000
1!
12
1E
1=
1F
1U
0G
0H
0I
1J
0K
1L
1M
1N
0P
1W
0Y
0Z
0[
0>
0?
0@
0A
1C
09
08
07
06
14
0(
0'
0&
0%
1#
#70000
0!
02
0E
0=
0F
#75000
1!
12
1E
1=
1F
0U
0T
0S
1R
1G
1K
0L
0M
0N
1Y
1Z
1[
1>
1?
1@
1A
19
18
17
16
1(
1'
1&
1%
#80000
0!
02
0E
0=
0F
#85000
1!
12
1E
1=
1F
1U
0G
0J
1M
0Z
0@
07
0&
#90000
0!
02
0E
0=
0F
#95000
1!
12
1E
1=
1F
0U
0R
1G
0K
0M
1Z
0>
1@
09
17
0(
1&
#100000
0!
02
0E
0=
0F
#105000
1!
12
1E
1=
1F
1U
0G
1H
1L
1M
1N
1Q
0V
0Y
0Z
0[
0?
0@
0A
0D
08
07
06
03
0'
0&
0%
0"
#110000
0!
02
0E
0=
0F
#115000
1!
12
1E
1=
1F
0U
1T
1G
1K
0M
0N
1O
0Q
1V
0X
1Y
1Z
1>
1@
1A
0B
1D
19
17
16
05
13
1(
1&
1%
0$
1"
#120000
0!
02
0E
0=
0F
#125000
1!
12
1E
1=
1F
1U
0G
0H
1I
1M
0O
1X
0Z
0@
1B
07
15
0&
1$
#130000
0!
02
0E
0=
0F
#135000
1!
12
1E
1=
1F
0U
0T
1S
1G
0L
1N
1Q
0V
0Y
1[
1?
0A
0D
18
06
03
1'
0%
0"
#140000
0!
02
0E
0=
0F
#145000
1!
12
1E
1=
1F
1U
0G
1H
0N
1P
0Q
1V
0W
1Y
1A
0C
1D
16
04
13
1%
0#
1"
#150000
0!
02
0E
0=
0F
#155000
1!
12
1E
1=
1F
0U
1T
1G
0M
1Z
1@
17
1&
#160000
0!
02
0E
0=
0F
#165000
1!
12
1E
1=
1F
1U
0G
0H
0I
1J
0K
1L
1M
1N
0P
1W
0Y
0Z
0[
0>
0?
0@
0A
1C
09
08
07
06
14
0(
0'
0&
0%
1#
#170000
0!
02
0E
0=
0F
#175000
1!
12
1E
1=
1F
0U
0T
0S
1R
1G
1K
0L
0M
0N
1Y
1Z
1[
1>
1?
1@
1A
19
18
17
16
1(
1'
1&
1%
#180000
0!
02
0E
0=
0F
#185000
1!
12
1E
1=
1F
1U
0G
0J
1M
0Z
0@
07
0&
#190000
0!
02
0E
0=
0F
#195000
1!
12
1E
1=
1F
0U
0R
1G
0K
0M
1Z
0>
1@
09
17
0(
1&
#200000
0!
02
0E
0=
0F
#205000
1!
12
1E
1=
1F
1U
0G
1H
1L
1M
1N
1Q
0V
0Y
0Z
0[
0?
0@
0A
0D
08
07
06
03
0'
0&
0%
0"
#210000
0!
02
0E
0=
0F
#215000
1!
12
1E
1=
1F
0U
1T
1G
1K
0M
0N
1O
0Q
1V
0X
1Y
1Z
1>
1@
1A
0B
1D
19
17
16
05
13
1(
1&
1%
0$
1"
#220000
0!
02
0E
0=
0F
#225000
1!
12
1E
1=
1F
1U
0G
0H
1I
1M
0O
1X
0Z
0@
1B
07
15
0&
1$
#230000
0!
02
0E
0=
0F
#235000
1!
12
1E
1=
1F
0U
0T
1S
1G
0L
1N
1Q
0V
0Y
1[
1?
0A
0D
18
06
03
1'
0%
0"
#240000
0!
02
0E
0=
0F
#245000
1!
12
1E
1=
1F
1U
0G
1H
0N
1P
0Q
1V
0W
1Y
1A
0C
1D
16
04
13
1%
0#
1"
#250000
0!
02
0E
0=
0F
#255000
1!
12
1E
1=
1F
0U
1T
1G
0M
1Z
1@
17
1&
#260000
0!
02
0E
0=
0F
#265000
1!
12
1E
1=
1F
1U
0G
0H
0I
1J
0K
1L
1M
1N
0P
1W
0Y
0Z
0[
0>
0?
0@
0A
1C
09
08
07
06
14
0(
0'
0&
0%
1#
#270000
0!
02
0E
0=
0F
#275000
1!
12
1E
1=
1F
0U
0T
0S
1R
1G
1K
0L
0M
0N
1Y
1Z
1[
1>
1?
1@
1A
19
18
17
16
1(
1'
1&
1%
#280000
0!
02
0E
0=
0F
#285000
1!
12
1E
1=
1F
1U
0G
0J
1M
0Z
0@
07
0&
#290000
0!
02
0E
0=
0F
#295000
1!
12
1E
1=
1F
0U
0R
1G
0K
0M
1Z
0>
1@
09
17
0(
1&
#300000
0!
02
0E
0=
0F
#305000
1!
12
1E
1=
1F
1U
0G
1H
1L
1M
1N
1Q
0V
0Y
0Z
0[
0?
0@
0A
0D
08
07
06
03
0'
0&
0%
0"
#310000
0!
02
0E
0=
0F
#315000
1!
12
1E
1=
1F
0U
1T
1G
1K
0M
0N
1O
0Q
1V
0X
1Y
1Z
1>
1@
1A
0B
1D
19
17
16
05
13
1(
1&
1%
0$
1"
#320000
0!
02
0E
0=
0F
#325000
1!
12
1E
1=
1F
1U
0G
0H
1I
1M
0O
1X
0Z
0@
1B
07
15
0&
1$
#330000
0!
02
0E
0=
0F
#335000
1!
12
1E
1=
1F
0U
0T
1S
1G
0L
1N
1Q
0V
0Y
1[
1?
0A
0D
18
06
03
1'
0%
0"
#340000
0!
02
0E
0=
0F
#345000
1!
12
1E
1=
1F
1U
0G
1H
0N
1P
0Q
1V
0W
1Y
1A
0C
1D
16
04
13
1%
0#
1"
#350000
0!
02
0E
0=
0F
#355000
1!
12
1E
1=
1F
0U
1T
1G
0M
1Z
1@
17
1&
#360000
0!
02
0E
0=
0F
#365000
1!
12
1E
1=
1F
1U
0G
0H
0I
1J
0K
1L
1M
1N
0P
1W
0Y
0Z
0[
0>
0?
0@
0A
1C
09
08
07
06
14
0(
0'
0&
0%
1#
#370000
0!
02
0E
0=
0F
#375000
1!
12
1E
1=
1F
0U
0T
0S
1R
1G
1K
0L
0M
0N
1Y
1Z
1[
1>
1?
1@
1A
19
18
17
16
1(
1'
1&
1%
#380000
0!
02
0E
0=
0F
#385000
1!
12
1E
1=
1F
1U
0G
0J
1M
0Z
0@
07
0&
#390000
0!
02
0E
0=
0F
#395000
1!
12
1E
1=
1F
0U
0R
1G
0K
0M
1Z
0>
1@
09
17
0(
1&
#400000
0!
02
0E
0=
0F
#405000
1!
12
1E
1=
1F
1U
0G
1H
1L
1M
1N
1Q
0V
0Y
0Z
0[
0?
0@
0A
0D
08
07
06
03
0'
0&
0%
0"
#410000
0!
02
0E
0=
0F
#415000
1!
12
1E
1=
1F
0U
1T
1G
1K
0M
0N
1O
0Q
1V
0X
1Y
1Z
1>
1@
1A
0B
1D
19
17
16
05
13
1(
1&
1%
0$
1"
#420000
0!
02
0E
0=
0F
#425000
1!
12
1E
1=
1F
1U
0G
0H
1I
1M
0O
1X
0Z
0@
1B
07
15
0&
1$
#430000
0!
02
0E
0=
0F
#435000
1!
12
1E
1=
1F
0U
0T
1S
1G
0L
1N
1Q
0V
0Y
1[
1?
0A
0D
18
06
03
1'
0%
0"
#440000
0!
02
0E
0=
0F
#445000
1!
12
1E
1=
1F
1U
0G
1H
0N
1P
0Q
1V
0W
1Y
1A
0C
1D
16
04
13
1%
0#
1"
#450000
0!
02
0E
0=
0F
#455000
1!
12
1E
1=
1F
0U
1T
1G
0M
1Z
1@
17
1&
#460000
0!
02
0E
0=
0F
#465000
1!
12
1E
1=
1F
1U
0G
0H
0I
1J
0K
1L
1M
1N
0P
1W
0Y
0Z
0[
0>
0?
0@
0A
1C
09
08
07
06
14
0(
0'
0&
0%
1#
#470000
0!
02
0E
0=
0F
#475000
1!
12
1E
1=
1F
0U
0T
0S
1R
1G
1K
0L
0M
0N
1Y
1Z
1[
1>
1?
1@
1A
19
18
17
16
1(
1'
1&
1%
#480000
0!
02
0E
0=
0F
#485000
1!
12
1E
1=
1F
1U
0G
0J
1M
0Z
0@
07
0&
#490000
0!
02
0E
0=
0F
#495000
1!
12
1E
1=
1F
0U
0R
1G
0K
0M
1Z
0>
1@
09
17
0(
1&
#500000
0!
02
0E
0=
0F
#505000
1!
12
1E
1=
1F
1U
0G
1H
1L
1M
1N
1Q
0V
0Y
0Z
0[
0?
0@
0A
0D
08
07
06
03
0'
0&
0%
0"
#510000
0!
02
0E
0=
0F
#515000
1!
12
1E
1=
1F
0U
1T
1G
1K
0M
0N
1O
0Q
1V
0X
1Y
1Z
1>
1@
1A
0B
1D
19
17
16
05
13
1(
1&
1%
0$
1"
#520000
0!
02
0E
0=
0F
#525000
1!
12
1E
1=
1F
1U
0G
0H
1I
1M
0O
1X
0Z
0@
1B
07
15
0&
1$
#530000
0!
02
0E
0=
0F
#535000
1!
12
1E
1=
1F
0U
0T
1S
1G
0L
1N
1Q
0V
0Y
1[
1?
0A
0D
18
06
03
1'
0%
0"
#540000
0!
02
0E
0=
0F
#545000
1!
12
1E
1=
1F
1U
0G
1H
0N
1P
0Q
1V
0W
1Y
1A
0C
1D
16
04
13
1%
0#
1"
#550000
0!
02
0E
0=
0F
#555000
1!
12
1E
1=
1F
0U
1T
1G
0M
1Z
1@
17
1&
#560000
0!
02
0E
0=
0F
#565000
1!
12
1E
1=
1F
1U
0G
0H
0I
1J
0K
1L
1M
1N
0P
1W
0Y
0Z
0[
0>
0?
0@
0A
1C
09
08
07
06
14
0(
0'
0&
0%
1#
#570000
0!
02
0E
0=
0F
#575000
1!
12
1E
1=
1F
0U
0T
0S
1R
1G
1K
0L
0M
0N
1Y
1Z
1[
1>
1?
1@
1A
19
18
17
16
1(
1'
1&
1%
#580000
0!
02
0E
0=
0F
#585000
1!
12
1E
1=
1F
1U
0G
0J
1M
0Z
0@
07
0&
#590000
0!
02
0E
0=
0F
#595000
1!
12
1E
1=
1F
0U
0R
1G
0K
0M
1Z
0>
1@
09
17
0(
1&
#600000
0!
02
0E
0=
0F
#605000
1!
12
1E
1=
1F
1U
0G
1H
1L
1M
1N
1Q
0V
0Y
0Z
0[
0?
0@
0A
0D
08
07
06
03
0'
0&
0%
0"
#610000
0!
02
0E
0=
0F
#615000
1!
12
1E
1=
1F
0U
1T
1G
1K
0M
0N
1O
0Q
1V
0X
1Y
1Z
1>
1@
1A
0B
1D
19
17
16
05
13
1(
1&
1%
0$
1"
#620000
0!
02
0E
0=
0F
#625000
1!
12
1E
1=
1F
1U
0G
0H
1I
1M
0O
1X
0Z
0@
1B
07
15
0&
1$
#630000
0!
02
0E
0=
0F
#635000
1!
12
1E
1=
1F
0U
0T
1S
1G
0L
1N
1Q
0V
0Y
1[
1?
0A
0D
18
06
03
1'
0%
0"
#640000
0!
02
0E
0=
0F
#645000
1!
12
1E
1=
1F
1U
0G
1H
0N
1P
0Q
1V
0W
1Y
1A
0C
1D
16
04
13
1%
0#
1"
#650000
0!
02
0E
0=
0F
#655000
1!
12
1E
1=
1F
0U
1T
1G
0M
1Z
1@
17
1&
#660000
0!
02
0E
0=
0F
#665000
1!
12
1E
1=
1F
1U
0G
0H
0I
1J
0K
1L
1M
1N
0P
1W
0Y
0Z
0[
0>
0?
0@
0A
1C
09
08
07
06
14
0(
0'
0&
0%
1#
#670000
0!
02
0E
0=
0F
#675000
1!
12
1E
1=
1F
0U
0T
0S
1R
1G
1K
0L
0M
0N
1Y
1Z
1[
1>
1?
1@
1A
19
18
17
16
1(
1'
1&
1%
#680000
0!
02
0E
0=
0F
#685000
1!
12
1E
1=
1F
1U
0G
0J
1M
0Z
0@
07
0&
#690000
0!
02
0E
0=
0F
#695000
1!
12
1E
1=
1F
0U
0R
1G
0K
0M
1Z
0>
1@
09
17
0(
1&
#700000
0!
02
0E
0=
0F
#705000
1!
12
1E
1=
1F
1U
0G
1H
1L
1M
1N
1Q
0V
0Y
0Z
0[
0?
0@
0A
0D
08
07
06
03
0'
0&
0%
0"
#710000
0!
02
0E
0=
0F
#715000
1!
12
1E
1=
1F
0U
1T
1G
1K
0M
0N
1O
0Q
1V
0X
1Y
1Z
1>
1@
1A
0B
1D
19
17
16
05
13
1(
1&
1%
0$
1"
#720000
0!
02
0E
0=
0F
#725000
1!
12
1E
1=
1F
1U
0G
0H
1I
1M
0O
1X
0Z
0@
1B
07
15
0&
1$
#730000
0!
02
0E
0=
0F
#735000
1!
12
1E
1=
1F
0U
0T
1S
1G
0L
1N
1Q
0V
0Y
1[
1?
0A
0D
18
06
03
1'
0%
0"
#740000
0!
02
0E
0=
0F
#745000
1!
12
1E
1=
1F
1U
0G
1H
0N
1P
0Q
1V
0W
1Y
1A
0C
1D
16
04
13
1%
0#
1"
#750000
0!
02
0E
0=
0F
#755000
1!
12
1E
1=
1F
0U
1T
1G
0M
1Z
1@
17
1&
#760000
0!
02
0E
0=
0F
#765000
1!
12
1E
1=
1F
1U
0G
0H
0I
1J
0K
1L
1M
1N
0P
1W
0Y
0Z
0[
0>
0?
0@
0A
1C
09
08
07
06
14
0(
0'
0&
0%
1#
#770000
0!
02
0E
0=
0F
#775000
1!
12
1E
1=
1F
0U
0T
0S
1R
1G
1K
0L
0M
0N
1Y
1Z
1[
1>
1?
1@
1A
19
18
17
16
1(
1'
1&
1%
#780000
0!
02
0E
0=
0F
#785000
1!
12
1E
1=
1F
1U
0G
0J
1M
0Z
0@
07
0&
#790000
0!
02
0E
0=
0F
#795000
1!
12
1E
1=
1F
0U
0R
1G
0K
0M
1Z
0>
1@
09
17
0(
1&
#800000
0!
02
0E
0=
0F
#805000
1!
12
1E
1=
1F
1U
0G
1H
1L
1M
1N
1Q
0V
0Y
0Z
0[
0?
0@
0A
0D
08
07
06
03
0'
0&
0%
0"
#810000
0!
02
0E
0=
0F
#815000
1!
12
1E
1=
1F
0U
1T
1G
1K
0M
0N
1O
0Q
1V
0X
1Y
1Z
1>
1@
1A
0B
1D
19
17
16
05
13
1(
1&
1%
0$
1"
#820000
0!
02
0E
0=
0F
#825000
1!
12
1E
1=
1F
1U
0G
0H
1I
1M
0O
1X
0Z
0@
1B
07
15
0&
1$
#830000
0!
02
0E
0=
0F
#835000
1!
12
1E
1=
1F
0U
0T
1S
1G
0L
1N
1Q
0V
0Y
1[
1?
0A
0D
18
06
03
1'
0%
0"
#840000
0!
02
0E
0=
0F
#845000
1!
12
1E
1=
1F
1U
0G
1H
0N
1P
0Q
1V
0W
1Y
1A
0C
1D
16
04
13
1%
0#
1"
#850000
0!
02
0E
0=
0F
#855000
1!
12
1E
1=
1F
0U
1T
1G
0M
1Z
1@
17
1&
#860000
0!
02
0E
0=
0F
#865000
1!
12
1E
1=
1F
1U
0G
0H
0I
1J
0K
1L
1M
1N
0P
1W
0Y
0Z
0[
0>
0?
0@
0A
1C
09
08
07
06
14
0(
0'
0&
0%
1#
#870000
0!
02
0E
0=
0F
#875000
1!
12
1E
1=
1F
0U
0T
0S
1R
1G
1K
0L
0M
0N
1Y
1Z
1[
1>
1?
1@
1A
19
18
17
16
1(
1'
1&
1%
#880000
0!
02
0E
0=
0F
#885000
1!
12
1E
1=
1F
1U
0G
0J
1M
0Z
0@
07
0&
#890000
0!
02
0E
0=
0F
#895000
1!
12
1E
1=
1F
0U
0R
1G
0K
0M
1Z
0>
1@
09
17
0(
1&
#900000
0!
02
0E
0=
0F
#905000
1!
12
1E
1=
1F
1U
0G
1H
1L
1M
1N
1Q
0V
0Y
0Z
0[
0?
0@
0A
0D
08
07
06
03
0'
0&
0%
0"
#910000
0!
02
0E
0=
0F
#915000
1!
12
1E
1=
1F
0U
1T
1G
1K
0M
0N
1O
0Q
1V
0X
1Y
1Z
1>
1@
1A
0B
1D
19
17
16
05
13
1(
1&
1%
0$
1"
#920000
0!
02
0E
0=
0F
#925000
1!
12
1E
1=
1F
1U
0G
0H
1I
1M
0O
1X
0Z
0@
1B
07
15
0&
1$
#930000
0!
02
0E
0=
0F
#935000
1!
12
1E
1=
1F
0U
0T
1S
1G
0L
1N
1Q
0V
0Y
1[
1?
0A
0D
18
06
03
1'
0%
0"
#940000
0!
02
0E
0=
0F
#945000
1!
12
1E
1=
1F
1U
0G
1H
0N
1P
0Q
1V
0W
1Y
1A
0C
1D
16
04
13
1%
0#
1"
#950000
0!
02
0E
0=
0F
#955000
1!
12
1E
1=
1F
0U
1T
1G
0M
1Z
1@
17
1&
#960000
0!
02
0E
0=
0F
#965000
1!
12
1E
1=
1F
1U
0G
0H
0I
1J
0K
1L
1M
1N
0P
1W
0Y
0Z
0[
0>
0?
0@
0A
1C
09
08
07
06
14
0(
0'
0&
0%
1#
#970000
0!
02
0E
0=
0F
#975000
1!
12
1E
1=
1F
0U
0T
0S
1R
1G
1K
0L
0M
0N
1Y
1Z
1[
1>
1?
1@
1A
19
18
17
16
1(
1'
1&
1%
#980000
0!
02
0E
0=
0F
#985000
1!
12
1E
1=
1F
1U
0G
0J
1M
0Z
0@
07
0&
#990000
0!
02
0E
0=
0F
#995000
1!
12
1E
1=
1F
0U
0R
1G
0K
0M
1Z
0>
1@
09
17
0(
1&
