VHDLcodes/012/simulation/qsim/LatchCircuit.msim.vcd
$comment
	File created using the following command:
		vcd file LatchCircuit.msim.vcd -direction
$end
$date
	Mon Jul 01 08:52:07 2024
$end
$version
	ModelSim Version 2020.1
$end
$timescale
	1ps
$end

$scope module latchcircuit_vhd_vec_tst $end
$var wire 1 ! data [2] $end
$var wire 1 " data [1] $end
$var wire 1 # data [0] $end
$var wire 1 $ en $end
$var wire 1 % Q [2] $end
$var wire 1 & Q [1] $end
$var wire 1 ' Q [0] $end
$var wire 1 ( rst $end
$var wire 1 ) set $end

$scope module i1 $end
$var wire 1 * gnd $end
$var wire 1 + vcc $end
$var wire 1 , unknown $end
$var wire 1 - devoe $end
$var wire 1 . devclrn $end
$var wire 1 / devpor $end
$var wire 1 0 ww_devoe $end
$var wire 1 1 ww_devclrn $end
$var wire 1 2 ww_devpor $end
$var wire 1 3 ww_en $end
$var wire 1 4 ww_rst $end
$var wire 1 5 ww_set $end
$var wire 1 6 ww_data [2] $end
$var wire 1 7 ww_data [1] $end
$var wire 1 8 ww_data [0] $end
$var wire 1 9 ww_Q [2] $end
$var wire 1 : ww_Q [1] $end
$var wire 1 ; ww_Q [0] $end
$var wire 1 < \en~inputclkctrl_INCLK_bus\ [3] $end
$var wire 1 = \en~inputclkctrl_INCLK_bus\ [2] $end
$var wire 1 > \en~inputclkctrl_INCLK_bus\ [1] $end
$var wire 1 ? \en~inputclkctrl_INCLK_bus\ [0] $end
$var wire 1 @ \Q[0]~output_o\ $end
$var wire 1 A \Q[1]~output_o\ $end
$var wire 1 B \Q[2]~output_o\ $end
$var wire 1 C \set~input_o\ $end
$var wire 1 D \rst~input_o\ $end
$var wire 1 E \data[0]~input_o\ $end
$var wire 1 F \en~input_o\ $end
$var wire 1 G \en~inputclkctrl_outclk\ $end
$var wire 1 H \Q[0]$latch~0_combout\ $end
$var wire 1 I \Q[0]$latch~combout\ $end
$var wire 1 J \data[1]~input_o\ $end
$var wire 1 K \Q[1]$latch~0_combout\ $end
$var wire 1 L \Q[1]$latch~combout\ $end
$var wire 1 M \data[2]~input_o\ $end
$var wire 1 N \Q[2]$latch~0_combout\ $end
$var wire 1 O \Q[2]$latch~combout\ $end
$upscope $end
$upscope $end
$enddefinitions $end
#0
$dumpvars
0$
1(
0)
0*
1+
x,
1-
1.
1/
10
11
12
03
14
05
0@
0A
0B
0C
1D
0E
0F
0G
0H
0I
0J
0K
0L
0M
0N
0O
0!
0"
0#
0%
0&
0'
06
07
08
09
0:
0;
1<
1=
1>
0?
$end
#5000
1!
16
1M
#10000
0!
1"
17
06
0M
1J
#15000
1!
1#
18
16
1M
1E
#20000
0!
0"
07
06
0M
0J
#25000
1!
16
1M
#30000
0!
1"
0#
08
17
06
0M
1J
0E
#35000
1!
16
1M
#40000
0!
0"
07
06
0M
0J
#45000
1!
1#
18
16
1M
1E
#50000
0!
1"
17
06
0M
1J
#55000
1!
16
1M
#60000
0!
0"
0#
1$
08
07
06
13
1F
0M
0J
0E
1?
1G
#65000
1!
16
1M
1N
#70000
0!
1"
17
06
0M
1J
1K
0N
#75000
1!
1#
18
16
1M
1E
1H
1N
#80000
0!
0"
07
06
0M
0J
0K
0N
#85000
1!
16
1M
1N
#90000
0!
1"
0#
0(
08
17
06
04
0D
0M
1J
0E
0H
1K
0N
1I
1O
0O
1L
0I
1B
1@
19
1;
0@
1A
0B
1'
1%
0;
1:
09
0'
1&
0%
#95000
1!
16
1M
1N
1O
1B
19
1%
#100000
0!
0"
1)
07
06
15
1C
0M
0J
0K
0N
1I
1@
1;
1'
#105000
1!
1#
18
16
1M
1E
1H
1N
#110000
0!
1"
17
06
0M
1J
1K
0N
#115000
1!
16
1M
1N
#120000
0!
0"
0#
0$
08
07
06
03
0F
0M
0J
0E
0?
0H
0K
0N
0G
1H
1K
1N
#125000
1!
16
1M
#130000
0!
1"
17
06
0M
1J
#135000
1!
1#
18
16
1M
1E
#140000
0!
0"
07
06
0M
0J
#145000
1!
16
1M
#150000
0!
1"
0#
08
17
06
0M
1J
0E
#155000
1!
16
1M
#160000
0!
0"
07
06
0M
0J
#165000
1!
1#
18
16
1M
1E
#170000
0!
1"
17
06
0M
1J
#175000
1!
16
1M
#180000
0!
0"
0#
1$
08
07
06
13
1F
0M
0J
0E
1?
1G
0H
0K
0N
#185000
1!
16
1M
1N
#190000
0!
1"
17
06
0M
1J
1K
0N
#195000
1!
1#
18
16
1M
1E
1H
1N
#200000
0!
0"
07
06
0M
0J
0K
0N
#205000
1!
16
1M
1N
#210000
0!
1"
0#
08
17
06
0M
1J
0E
0H
1K
0N
#215000
1!
16
1M
1N
#220000
0!
0"
07
06
0M
0J
0K
0N
#225000
1!
1#
18
16
1M
1E
1H
1N
#230000
0!
1"
17
06
0M
1J
1K
0N
#235000
1!
16
1M
1N
#240000
0!
0"
0#
0$
08
07
06
03
0F
0M
0J
0E
0?
0H
0K
0N
0G
1H
1K
1N
#245000
1!
16
1M
#250000
0!
1"
17
06
0M
1J
#255000
1!
1#
18
16
1M
1E
#260000
0!
0"
07
06
0M
0J
#265000
1!
16
1M
#270000
0!
1"
0#
08
17
06
0M
1J
0E
#275000
1!
16
1M
#280000
0!
0"
07
06
0M
0J
#285000
1!
1#
18
16
1M
1E
#290000
0!
1"
17
06
0M
1J
#295000
1!
16
1M
#300000
0!
0"
0#
1$
08
07
06
13
1F
0M
0J
0E
1?
1G
0H
0K
0N
#305000
1!
16
1M
1N
#310000
0!
1"
17
06
0M
1J
1K
0N
#315000
1!
1#
18
16
1M
1E
1H
1N
#320000
0!
0"
07
06
0M
0J
0K
0N
#325000
1!
16
1M
1N
#330000
0!
1"
0#
08
17
06
0M
1J
0E
0H
1K
0N
#335000
1!
16
1M
1N
#340000
0!
0"
07
06
0M
0J
0K
0N
#345000
1!
1#
18
16
1M
1E
1H
1N
#350000
0!
1"
17
06
0M
1J
1K
0N
#355000
1!
16
1M
1N
#360000
0!
0"
0#
0$
08
07
06
03
0F
0M
0J
0E
0?
0H
0K
0N
0G
1H
1K
1N
#365000
1!
16
1M
#370000
0!
1"
17
06
0M
1J
#375000
1!
1#
18
16
1M
1E
#380000
0!
0"
07
06
0M
0J
#385000
1!
16
1M
#390000
0!
1"
0#
08
17
06
0M
1J
0E
#395000
1!
16
1M
#400000
0!
0"
07
06
0M
0J
#405000
1!
1#
18
16
1M
1E
#410000
0!
1"
17
06
0M
1J
#415000
1!
16
1M
#420000
0!
0"
0#
1$
08
07
06
13
1F
0M
0J
0E
1?
1G
0H
0K
0N
#425000
1!
16
1M
1N
#430000
0!
1"
17
06
0M
1J
1K
0N
#435000
1!
1#
18
16
1M
1E
1H
1N
#440000
0!
0"
0)
07
06
05
0C
0M
0J
0K
0N
0O
0L
0A
0B
0:
09
0&
0%
#445000
1!
16
1M
1N
1O
1B
19
1%
#450000
0!
1"
0#
08
17
06
0M
1J
0E
0H
1K
0N
0O
1L
0I
0@
1A
0B
0;
1:
09
0'
1&
0%
#455000
1!
16
1M
1N
1O
1B
19
1%
#460000
0!
0"
07
06
0M
0J
0K
0N
0O
0L
0A
0B
0:
09
0&
0%
#465000
1!
1#
18
16
1M
1E
1H
1N
1O
1I
1@
1B
1;
19
1'
1%
#470000
0!
1"
17
06
0M
1J
1K
0N
0O
1L
1A
0B
1:
09
1&
0%
#475000
1!
16
1M
1N
1O
1B
19
1%
#480000
0!
0"
0#
0$
08
07
06
03
0F
0M
0J
0E
0?
0H
0K
0N
0O
0L
0I
0G
0@
0A
0B
0;
0:
09
0'
0&
0%
#485000
1!
16
1M
#490000
0!
1"
17
06
0M
1J
#495000
1!
1#
18
16
1M
1E
#500000
0!
0"
07
06
0M
0J
#505000
1!
16
1M
#510000
0!
1"
0#
08
17
06
0M
1J
0E
#515000
1!
16
1M
#520000
0!
0"
07
06
0M
0J
#525000
1!
1#
18
16
1M
1E
#530000
0!
1"
17
06
0M
1J
#535000
1!
16
1M
#540000
0!
0"
0#
1$
08
07
06
13
1F
0M
0J
0E
1?
1G
#545000
1!
16
1M
1N
1O
1B
19
1%
#550000
0!
1"
17
06
0M
1J
1K
0N
0O
1L
1A
0B
1:
09
1&
0%
#555000
1!
1#
18
16
1M
1E
1H
1N
1O
1I
1@
1B
1;
19
1'
1%
#560000
0!
0"
07
06
0M
0J
0K
0N
0O
0L
0A
0B
0:
09
0&
0%
#565000
1!
16
1M
1N
1O
1B
19
1%
#570000
0!
1"
0#
08
17
06
0M
1J
0E
0H
1K
0N
0O
1L
0I
0@
1A
0B
0;
1:
09
0'
1&
0%
#575000
1!
16
1M
1N
1O
1B
19
1%
#580000
0!
0"
07
06
0M
0J
0K
0N
0O
0L
0A
0B
0:
09
0&
0%
#585000
1!
1#
18
16
1M
1E
1H
1N
1O
1I
1@
1B
1;
19
1'
1%
#590000
0!
1"
17
06
0M
1J
1K
0N
0O
1L
1A
0B
1:
09
1&
0%
#595000
1!
16
1M
1N
1O
1B
19
1%
#600000
0!
0"
0#
0$
08
07
06
03
0F
0M
0J
0E
0?
0H
0K
0N
0O
0L
0I
0G
0@
0A
0B
0;
0:
09
0'
0&
0%
#605000
1!
16
1M
#610000
0!
1"
17
06
0M
1J
#615000
1!
1#
18
16
1M
1E
#620000
0!
0"
07
06
0M
0J
#625000
1!
16
1M
#630000
0!
1"
0#
08
17
06
0M
1J
0E
#635000
1!
16
1M
#640000
0!
0"
07
06
0M
0J
#645000
1!
1#
18
16
1M
1E
#650000
0!
1"
17
06
0M
1J
#655000
1!
16
1M
#660000
0!
0"
0#
1$
08
07
06
13
1F
0M
0J
0E
1?
1G
#665000
1!
16
1M
1N
1O
1B
19
1%
#670000
0!
1"
17
06
0M
1J
1K
0N
0O
1L
1A
0B
1:
09
1&
0%
#675000
1!
1#
18
16
1M
1E
1H
1N
1O
1I
1@
1B
1;
19
1'
1%
#680000
0!
0"
07
06
0M
0J
0K
0N
0O
0L
0A
0B
0:
09
0&
0%
#685000
1!
16
1M
1N
1O
1B
19
1%
#690000
0!
1"
0#
08
17
06
0M
1J
0E
0H
1K
0N
0O
1L
0I
0@
1A
0B
0;
1:
09
0'
1&
0%
#695000
1!
16
1M
1N
1O
1B
19
1%
#700000
0!
0"
07
06
0M
0J
0K
0N
0O
0L
0A
0B
0:
09
0&
0%
#705000
1!
1#
18
16
1M
1E
1H
1N
1O
1I
1@
1B
1;
19
1'
1%
#710000
0!
1"
17
06
0M
1J
1K
0N
0O
1L
1A
0B
1:
09
1&
0%
#715000
1!
16
1M
1N
1O
1B
19
1%
#720000
0!
0"
0#
0$
08
07
06
03
0F
0M
0J
0E
0?
0H
0K
0N
0O
0L
0I
0G
0@
0A
0B
0;
0:
09
0'
0&
0%
#725000
1!
16
1M
#730000
0!
1"
17
06
0M
1J
#735000
1!
1#
18
16
1M
1E
#740000
0!
0"
07
06
0M
0J
#745000
1!
16
1M
#750000
0!
1"
0#
08
17
06
0M
1J
0E
#755000
1!
16
1M
#760000
0!
0"
07
06
0M
0J
#765000
1!
1#
18
16
1M
1E
#770000
0!
1"
17
06
0M
1J
#775000
1!
16
1M
#780000
0!
0"
0#
1$
08
07
06
13
1F
0M
0J
0E
1?
1G
#785000
1!
16
1M
1N
1O
1B
19
1%
#790000
0!
1"
17
06
0M
1J
1K
0N
0O
1L
1A
0B
1:
09
1&
0%
#795000
1!
1#
18
16
1M
1E
1H
1N
1O
1I
1@
1B
1;
19
1'
1%
#800000
0!
0"
07
06
0M
0J
0K
0N
0O
0L
0A
0B
0:
09
0&
0%
#805000
1!
16
1M
1N
1O
1B
19
1%
#810000
0!
1"
0#
08
17
06
0M
1J
0E
0H
1K
0N
0O
1L
0I
0@
1A
0B
0;
1:
09
0'
1&
0%
#815000
1!
16
1M
1N
1O
1B
19
1%
#820000
0!
0"
07
06
0M
0J
0K
0N
0O
0L
0A
0B
0:
09
0&
0%
#825000
1!
1#
18
16
1M
1E
1H
1N
1O
1I
1@
1B
1;
19
1'
1%
#830000
0!
1"
17
06
0M
1J
1K
0N
0O
1L
1A
0B
1:
09
1&
0%
#835000
1!
16
1M
1N
1O
1B
19
1%
#840000
0!
0"
0#
0$
08
07
06
03
0F
0M
0J
0E
0?
0H
0K
0N
0O
0L
0I
0G
0@
0A
0B
0;
0:
09
0'
0&
0%
#845000
1!
16
1M
#850000
0!
1"
17
06
0M
1J
#855000
1!
1#
18
16
1M
1E
#860000
0!
0"
07
06
0M
0J
#865000
1!
16
1M
#870000
0!
1"
0#
08
17
06
0M
1J
0E
#875000
1!
16
1M
#880000
0!
0"
07
06
0M
0J
#885000
1!
1#
18
16
1M
1E
#890000
0!
1"
17
06
0M
1J
#895000
1!
16
1M
#900000
0!
0"
0#
1$
08
07
06
13
1F
0M
0J
0E
1?
1G
#905000
1!
16
1M
1N
1O
1B
19
1%
#910000
0!
1"
17
06
0M
1J
1K
0N
0O
1L
1A
0B
1:
09
1&
0%
#915000
1!
1#
18
16
1M
1E
1H
1N
1O
1I
1@
1B
1;
19
1'
1%
#920000
0!
0"
07
06
0M
0J
0K
0N
0O
0L
0A
0B
0:
09
0&
0%
#925000
1!
16
1M
1N
1O
1B
19
1%
#930000
0!
1"
0#
08
17
06
0M
1J
0E
0H
1K
0N
0O
1L
0I
0@
1A
0B
0;
1:
09
0'
1&
0%
#935000
1!
16
1M
1N
1O
1B
19
1%
#940000
0!
0"
07
06
0M
0J
0K
0N
0O
0L
0A
0B
0:
09
0&
0%
#945000
1!
1#
18
16
1M
1E
1H
1N
1O
1I
1@
1B
1;
19
1'
1%
#950000
0!
1"
17
06
0M
1J
1K
0N
0O
1L
1A
0B
1:
09
1&
0%
#955000
1!
16
1M
1N
1O
1B
19
1%
#960000
0!
0"
0#
0$
08
07
06
03
0F
0M
0J
0E
0?
0H
0K
0N
0O
0L
0I
0G
0@
0A
0B
0;
0:
09
0'
0&
0%
#965000
1!
16
1M
#970000
0!
1"
17
06
0M
1J
#975000
1!
1#
18
16
1M
1E
#980000
0!
0"
07
06
0M
0J
#985000
1!
16
1M
#990000
0!
1"
0#
08
17
06
0M
1J
0E
#995000
1!
16
1M
