VHDLcodes/013/simulation/qsim/RegisterEdge.msim.vcd
$comment
	File created using the following command:
		vcd file RegisterEdge.msim.vcd -direction
$end
$date
	Mon Jul 01 09:22:26 2024
$end
$version
	ModelSim Version 2020.1
$end
$timescale
	1ps
$end

$scope module registeredge_vhd_vec_tst $end
$var wire 1 ! clk $end
$var wire 1 " data [2] $end
$var wire 1 # data [1] $end
$var wire 1 $ data [0] $end
$var wire 1 % Q [2] $end
$var wire 1 & Q [1] $end
$var wire 1 ' Q [0] $end
$var wire 1 ( rst $end
$var wire 1 ) set $end

$scope module i1 $end
$var wire 1 * gnd $end
$var wire 1 + vcc $end
$var wire 1 , unknown $end
$var wire 1 - devoe $end
$var wire 1 . devclrn $end
$var wire 1 / devpor $end
$var wire 1 0 ww_devoe $end
$var wire 1 1 ww_devclrn $end
$var wire 1 2 ww_devpor $end
$var wire 1 3 ww_clk $end
$var wire 1 4 ww_rst $end
$var wire 1 5 ww_set $end
$var wire 1 6 ww_data [2] $end
$var wire 1 7 ww_data [1] $end
$var wire 1 8 ww_data [0] $end
$var wire 1 9 ww_Q [2] $end
$var wire 1 : ww_Q [1] $end
$var wire 1 ; ww_Q [0] $end
$var wire 1 < \clk~inputclkctrl_INCLK_bus\ [3] $end
$var wire 1 = \clk~inputclkctrl_INCLK_bus\ [2] $end
$var wire 1 > \clk~inputclkctrl_INCLK_bus\ [1] $end
$var wire 1 ? \clk~inputclkctrl_INCLK_bus\ [0] $end
$var wire 1 @ \Q[0]~output_o\ $end
$var wire 1 A \Q[1]~output_o\ $end
$var wire 1 B \Q[2]~output_o\ $end
$var wire 1 C \clk~input_o\ $end
$var wire 1 D \clk~inputclkctrl_outclk\ $end
$var wire 1 E \set~input_o\ $end
$var wire 1 F \data[0]~input_o\ $end
$var wire 1 G \rst~input_o\ $end
$var wire 1 H \Q~0_combout\ $end
$var wire 1 I \Q[0]~reg0_q\ $end
$var wire 1 J \data[1]~input_o\ $end
$var wire 1 K \Q~1_combout\ $end
$var wire 1 L \Q[1]~reg0_q\ $end
$var wire 1 M \data[2]~input_o\ $end
$var wire 1 N \Q~2_combout\ $end
$var wire 1 O \Q[2]~reg0_q\ $end
$upscope $end
$upscope $end
$enddefinitions $end
#0
$dumpvars
0!
1(
0)
0*
1+
x,
1-
1.
1/
10
11
12
03
14
05
0@
0A
0B
0C
0D
0E
0F
1G
0H
0I
0J
0K
0L
0M
0N
0O
0"
0#
0$
0%
0&
0'
06
07
08
09
0:
0;
1<
1=
1>
0?
$end
#5000
1!
1"
13
16
1M
1C
1?
1D
#10000
0!
0"
1#
03
17
06
0M
1J
0C
0?
0D
#15000
1!
1"
1$
13
18
16
1M
1F
1C
1?
1D
#20000
0!
0"
0#
03
07
06
0M
0J
0C
0?
0D
#25000
1!
1"
13
16
1M
1C
1?
1D
#30000
0!
0"
1#
0$
03
08
17
06
0M
1J
0F
0C
0?
0D
#35000
1!
1"
13
16
1M
1C
1?
1D
#40000
0!
0"
0#
03
07
06
0M
0J
0C
0?
0D
#45000
1!
1"
1$
13
18
16
1M
1F
1C
1?
1D
#50000
0!
0"
1#
03
17
06
0M
1J
0C
0?
0D
#55000
1!
1"
13
16
1M
1C
1?
1D
#60000
0!
0"
0#
0$
0(
1)
03
08
07
06
04
15
1E
0G
0M
0J
0F
0C
0?
1H
1K
1N
0D
#65000
1!
1"
13
16
1M
1C
1?
1D
1I
1L
1O
1B
1A
1@
19
1:
1;
1'
1&
1%
#70000
0!
0"
1#
03
17
06
0M
1J
0C
0?
0D
#75000
1!
1"
1$
13
18
16
1M
1F
1C
1?
1D
#80000
0!
0"
0#
03
07
06
0M
0J
0C
0?
0D
#85000
1!
1"
13
16
1M
1C
1?
1D
#90000
0!
0"
1#
0$
03
08
17
06
0M
1J
0F
0C
0?
0D
#95000
1!
1"
13
16
1M
1C
1?
1D
#100000
0!
0"
0#
03
07
06
0M
0J
0C
0?
0D
#105000
1!
1"
1$
13
18
16
1M
1F
1C
1?
1D
#110000
0!
0"
1#
03
17
06
0M
1J
0C
0?
0D
#115000
1!
1"
13
16
1M
1C
1?
1D
#120000
0!
0"
0#
0$
03
08
07
06
0M
0J
0F
0C
0?
0D
#125000
1!
1"
13
16
1M
1C
1?
1D
#130000
0!
0"
1#
03
17
06
0M
1J
0C
0?
0D
#135000
1!
1"
1$
13
18
16
1M
1F
1C
1?
1D
#140000
0!
0"
0#
0)
03
07
06
05
0E
0M
0J
0C
0?
0K
0N
0D
#145000
1!
1"
13
16
1M
1C
1?
1N
1D
0L
0A
0:
0&
#150000
0!
0"
1#
0$
03
08
17
06
0M
1J
0F
0C
0?
0H
1K
0N
0D
#155000
1!
1"
13
16
1M
1C
1?
1N
1D
0I
1L
1A
0@
1:
0;
0'
1&
#160000
0!
0"
0#
03
07
06
0M
0J
0C
0?
0K
0N
0D
#165000
1!
1"
1$
13
18
16
1M
1F
1C
1?
1H
1N
1D
1I
0L
0A
1@
0:
1;
1'
0&
#170000
0!
0"
1#
03
17
06
0M
1J
0C
0?
1K
0N
0D
#175000
1!
1"
13
16
1M
1C
1?
1N
1D
1L
1A
1:
1&
#180000
0!
0"
0#
0$
03
08
07
06
0M
0J
0F
0C
0?
0H
0K
0N
0D
#185000
1!
1"
13
16
1M
1C
1?
1N
1D
0I
0L
0A
0@
0:
0;
0'
0&
#190000
0!
0"
1#
03
17
06
0M
1J
0C
0?
1K
0N
0D
#195000
1!
1"
1$
13
18
16
1M
1F
1C
1?
1H
1N
1D
1I
1L
1A
1@
1:
1;
1'
1&
#200000
0!
0"
0#
03
07
06
0M
0J
0C
0?
0K
0N
0D
#205000
1!
1"
13
16
1M
1C
1?
1N
1D
0L
0A
0:
0&
#210000
0!
0"
1#
0$
03
08
17
06
0M
1J
0F
0C
0?
0H
1K
0N
0D
#215000
1!
1"
13
16
1M
1C
1?
1N
1D
0I
1L
1A
0@
1:
0;
0'
1&
#220000
0!
0"
0#
03
07
06
0M
0J
0C
0?
0K
0N
0D
#225000
1!
1"
1$
13
18
16
1M
1F
1C
1?
1H
1N
1D
1I
0L
0A
1@
0:
1;
1'
0&
#230000
0!
0"
1#
03
17
06
0M
1J
0C
0?
1K
0N
0D
#235000
1!
1"
13
16
1M
1C
1?
1N
1D
1L
1A
1:
1&
#240000
0!
0"
0#
0$
03
08
07
06
0M
0J
0F
0C
0?
0H
0K
0N
0D
#245000
1!
1"
13
16
1M
1C
1?
1N
1D
0I
0L
0A
0@
0:
0;
0'
0&
#250000
0!
0"
1#
03
17
06
0M
1J
0C
0?
1K
0N
0D
#255000
1!
1"
1$
13
18
16
1M
1F
1C
1?
1H
1N
1D
1I
1L
1A
1@
1:
1;
1'
1&
#260000
0!
0"
0#
03
07
06
0M
0J
0C
0?
0K
0N
0D
#265000
1!
1"
13
16
1M
1C
1?
1N
1D
0L
0A
0:
0&
#270000
0!
0"
1#
0$
03
08
17
06
0M
1J
0F
0C
0?
0H
1K
0N
0D
#275000
1!
1"
13
16
1M
1C
1?
1N
1D
0I
1L
1A
0@
1:
0;
0'
1&
#280000
0!
0"
0#
03
07
06
0M
0J
0C
0?
0K
0N
0D
#285000
1!
1"
1$
13
18
16
1M
1F
1C
1?
1H
1N
1D
1I
0L
0A
1@
0:
1;
1'
0&
#290000
0!
0"
1#
03
17
06
0M
1J
0C
0?
1K
0N
0D
#295000
1!
1"
13
16
1M
1C
1?
1N
1D
1L
1A
1:
1&
#300000
0!
0"
0#
0$
03
08
07
06
0M
0J
0F
0C
0?
0H
0K
0N
0D
#305000
1!
1"
13
16
1M
1C
1?
1N
1D
0I
0L
0A
0@
0:
0;
0'
0&
#310000
0!
0"
1#
03
17
06
0M
1J
0C
0?
1K
0N
0D
#315000
1!
1"
1$
13
18
16
1M
1F
1C
1?
1H
1N
1D
1I
1L
1A
1@
1:
1;
1'
1&
#320000
0!
0"
0#
03
07
06
0M
0J
0C
0?
0K
0N
0D
#325000
1!
1"
13
16
1M
1C
1?
1N
1D
0L
0A
0:
0&
#330000
0!
0"
1#
0$
03
08
17
06
0M
1J
0F
0C
0?
0H
1K
0N
0D
#335000
1!
1"
13
16
1M
1C
1?
1N
1D
0I
1L
1A
0@
1:
0;
0'
1&
#340000
0!
0"
0#
03
07
06
0M
0J
0C
0?
0K
0N
0D
#345000
1!
1"
1$
13
18
16
1M
1F
1C
1?
1H
1N
1D
1I
0L
0A
1@
0:
1;
1'
0&
#350000
0!
0"
1#
03
17
06
0M
1J
0C
0?
1K
0N
0D
#355000
1!
1"
13
16
1M
1C
1?
1N
1D
1L
1A
1:
1&
#360000
0!
0"
0#
0$
03
08
07
06
0M
0J
0F
0C
0?
0H
0K
0N
0D
#365000
1!
1"
13
16
1M
1C
1?
1N
1D
0I
0L
0A
0@
0:
0;
0'
0&
#370000
0!
0"
1#
03
17
06
0M
1J
0C
0?
1K
0N
0D
#375000
1!
1"
1$
13
18
16
1M
1F
1C
1?
1H
1N
1D
1I
1L
1A
1@
1:
1;
1'
1&
#380000
0!
0"
0#
03
07
06
0M
0J
0C
0?
0K
0N
0D
#385000
1!
1"
13
16
1M
1C
1?
1N
1D
0L
0A
0:
0&
#390000
0!
0"
1#
0$
03
08
17
06
0M
1J
0F
0C
0?
0H
1K
0N
0D
#395000
1!
1"
13
16
1M
1C
1?
1N
1D
0I
1L
1A
0@
1:
0;
0'
1&
#400000
0!
0"
0#
03
07
06
0M
0J
0C
0?
0K
0N
0D
#405000
1!
1"
1$
13
18
16
1M
1F
1C
1?
1H
1N
1D
1I
0L
0A
1@
0:
1;
1'
0&
#410000
0!
0"
1#
03
17
06
0M
1J
0C
0?
1K
0N
0D
#415000
1!
1"
13
16
1M
1C
1?
1N
1D
1L
1A
1:
1&
#420000
0!
0"
0#
0$
03
08
07
06
0M
0J
0F
0C
0?
0H
0K
0N
0D
#425000
1!
1"
13
16
1M
1C
1?
1N
1D
0I
0L
0A
0@
0:
0;
0'
0&
#430000
0!
0"
1#
03
17
06
0M
1J
0C
0?
1K
0N
0D
#435000
1!
1"
1$
13
18
16
1M
1F
1C
1?
1H
1N
1D
1I
1L
1A
1@
1:
1;
1'
1&
#440000
0!
0"
0#
03
07
06
0M
0J
0C
0?
0K
0N
0D
#445000
1!
1"
13
16
1M
1C
1?
1N
1D
0L
0A
0:
0&
#450000
0!
0"
1#
0$
03
08
17
06
0M
1J
0F
0C
0?
0H
1K
0N
0D
#455000
1!
1"
13
16
1M
1C
1?
1N
1D
0I
1L
1A
0@
1:
0;
0'
1&
#460000
0!
0"
0#
03
07
06
0M
0J
0C
0?
0K
0N
0D
#465000
1!
1"
1$
13
18
16
1M
1F
1C
1?
1H
1N
1D
1I
0L
0A
1@
0:
1;
1'
0&
#470000
0!
0"
1#
03
17
06
0M
1J
0C
0?
1K
0N
0D
#475000
1!
1"
13
16
1M
1C
1?
1N
1D
1L
1A
1:
1&
#480000
0!
0"
0#
0$
03
08
07
06
0M
0J
0F
0C
0?
0H
0K
0N
0D
#485000
1!
1"
13
16
1M
1C
1?
1N
1D
0I
0L
0A
0@
0:
0;
0'
0&
#490000
0!
0"
1#
03
17
06
0M
1J
0C
0?
1K
0N
0D
#495000
1!
1"
1$
13
18
16
1M
1F
1C
1?
1H
1N
1D
1I
1L
1A
1@
1:
1;
1'
1&
#500000
0!
0"
0#
03
07
06
0M
0J
0C
0?
0K
0N
0D
#505000
1!
1"
13
16
1M
1C
1?
1N
1D
0L
0A
0:
0&
#510000
0!
0"
1#
0$
03
08
17
06
0M
1J
0F
0C
0?
0H
1K
0N
0D
#515000
1!
1"
13
16
1M
1C
1?
1N
1D
0I
1L
1A
0@
1:
0;
0'
1&
#520000
0!
0"
0#
03
07
06
0M
0J
0C
0?
0K
0N
0D
#525000
1!
1"
1$
13
18
16
1M
1F
1C
1?
1H
1N
1D
1I
0L
0A
1@
0:
1;
1'
0&
#530000
0!
0"
1#
03
17
06
0M
1J
0C
0?
1K
0N
0D
#535000
1!
1"
13
16
1M
1C
1?
1N
1D
1L
1A
1:
1&
#540000
0!
0"
0#
0$
03
08
07
06
0M
0J
0F
0C
0?
0H
0K
0N
0D
#545000
1!
1"
13
16
1M
1C
1?
1N
1D
0I
0L
0A
0@
0:
0;
0'
0&
#550000
0!
0"
1#
03
17
06
0M
1J
0C
0?
1K
0N
0D
#555000
1!
1"
1$
13
18
16
1M
1F
1C
1?
1H
1N
1D
1I
1L
1A
1@
1:
1;
1'
1&
#560000
0!
0"
0#
03
07
06
0M
0J
0C
0?
0K
0N
0D
#565000
1!
1"
13
16
1M
1C
1?
1N
1D
0L
0A
0:
0&
#570000
0!
0"
1#
0$
03
08
17
06
0M
1J
0F
0C
0?
0H
1K
0N
0D
#575000
1!
1"
13
16
1M
1C
1?
1N
1D
0I
1L
1A
0@
1:
0;
0'
1&
#580000
0!
0"
0#
03
07
06
0M
0J
0C
0?
0K
0N
0D
#585000
1!
1"
1$
13
18
16
1M
1F
1C
1?
1H
1N
1D
1I
0L
0A
1@
0:
1;
1'
0&
#590000
0!
0"
1#
03
17
06
0M
1J
0C
0?
1K
0N
0D
#595000
1!
1"
13
16
1M
1C
1?
1N
1D
1L
1A
1:
1&
#600000
0!
0"
0#
0$
03
08
07
06
0M
0J
0F
0C
0?
0H
0K
0N
0D
#605000
1!
1"
13
16
1M
1C
1?
1N
1D
0I
0L
0A
0@
0:
0;
0'
0&
#610000
0!
0"
1#
03
17
06
0M
1J
0C
0?
1K
0N
0D
#615000
1!
1"
1$
13
18
16
1M
1F
1C
1?
1H
1N
1D
1I
1L
1A
1@
1:
1;
1'
1&
#620000
0!
0"
0#
03
07
06
0M
0J
0C
0?
0K
0N
0D
#625000
1!
1"
13
16
1M
1C
1?
1N
1D
0L
0A
0:
0&
#630000
0!
0"
1#
0$
03
08
17
06
0M
1J
0F
0C
0?
0H
1K
0N
0D
#635000
1!
1"
13
16
1M
1C
1?
1N
1D
0I
1L
1A
0@
1:
0;
0'
1&
#640000
0!
0"
0#
03
07
06
0M
0J
0C
0?
0K
0N
0D
#645000
1!
1"
1$
13
18
16
1M
1F
1C
1?
1H
1N
1D
1I
0L
0A
1@
0:
1;
1'
0&
#650000
0!
0"
1#
03
17
06
0M
1J
0C
0?
1K
0N
0D
#655000
1!
1"
13
16
1M
1C
1?
1N
1D
1L
1A
1:
1&
#660000
0!
0"
0#
0$
03
08
07
06
0M
0J
0F
0C
0?
0H
0K
0N
0D
#665000
1!
1"
13
16
1M
1C
1?
1N
1D
0I
0L
0A
0@
0:
0;
0'
0&
#670000
0!
0"
1#
03
17
06
0M
1J
0C
0?
1K
0N
0D
#675000
1!
1"
1$
13
18
16
1M
1F
1C
1?
1H
1N
1D
1I
1L
1A
1@
1:
1;
1'
1&
#680000
0!
0"
0#
03
07
06
0M
0J
0C
0?
0K
0N
0D
#685000
1!
1"
13
16
1M
1C
1?
1N
1D
0L
0A
0:
0&
#690000
0!
0"
1#
0$
03
08
17
06
0M
1J
0F
0C
0?
0H
1K
0N
0D
#695000
1!
1"
13
16
1M
1C
1?
1N
1D
0I
1L
1A
0@
1:
0;
0'
1&
#700000
0!
0"
0#
03
07
06
0M
0J
0C
0?
0K
0N
0D
#705000
1!
1"
1$
13
18
16
1M
1F
1C
1?
1H
1N
1D
1I
0L
0A
1@
0:
1;
1'
0&
#710000
0!
0"
1#
03
17
06
0M
1J
0C
0?
1K
0N
0D
#715000
1!
1"
13
16
1M
1C
1?
1N
1D
1L
1A
1:
1&
#720000
0!
0"
0#
0$
03
08
07
06
0M
0J
0F
0C
0?
0H
0K
0N
0D
#725000
1!
1"
13
16
1M
1C
1?
1N
1D
0I
0L
0A
0@
0:
0;
0'
0&
#730000
0!
0"
1#
03
17
06
0M
1J
0C
0?
1K
0N
0D
#735000
1!
1"
1$
13
18
16
1M
1F
1C
1?
1H
1N
1D
1I
1L
1A
1@
1:
1;
1'
1&
#740000
0!
0"
0#
03
07
06
0M
0J
0C
0?
0K
0N
0D
#745000
1!
1"
13
16
1M
1C
1?
1N
1D
0L
0A
0:
0&
#750000
0!
0"
1#
0$
03
08
17
06
0M
1J
0F
0C
0?
0H
1K
0N
0D
#755000
1!
1"
13
16
1M
1C
1?
1N
1D
0I
1L
1A
0@
1:
0;
0'
1&
#760000
0!
0"
0#
03
07
06
0M
0J
0C
0?
0K
0N
0D
#765000
1!
1"
1$
13
18
16
1M
1F
1C
1?
1H
1N
1D
1I
0L
0A
1@
0:
1;
1'
0&
#770000
0!
0"
1#
03
17
06
0M
1J
0C
0?
1K
0N
0D
#775000
1!
1"
13
16
1M
1C
1?
1N
1D
1L
1A
1:
1&
#780000
0!
0"
0#
0$
03
08
07
06
0M
0J
0F
0C
0?
0H
0K
0N
0D
#785000
1!
1"
13
16
1M
1C
1?
1N
1D
0I
0L
0A
0@
0:
0;
0'
0&
#790000
0!
0"
1#
03
17
06
0M
1J
0C
0?
1K
0N
0D
#795000
1!
1"
1$
13
18
16
1M
1F
1C
1?
1H
1N
1D
1I
1L
1A
1@
1:
1;
1'
1&
#800000
0!
0"
0#
03
07
06
0M
0J
0C
0?
0K
0N
0D
#805000
1!
1"
13
16
1M
1C
1?
1N
1D
0L
0A
0:
0&
#810000
0!
0"
1#
0$
03
08
17
06
0M
1J
0F
0C
0?
0H
1K
0N
0D
#815000
1!
1"
13
16
1M
1C
1?
1N
1D
0I
1L
1A
0@
1:
0;
0'
1&
#820000
0!
0"
0#
03
07
06
0M
0J
0C
0?
0K
0N
0D
#825000
1!
1"
1$
13
18
16
1M
1F
1C
1?
1H
1N
1D
1I
0L
0A
1@
0:
1;
1'
0&
#830000
0!
0"
1#
03
17
06
0M
1J
0C
0?
1K
0N
0D
#835000
1!
1"
13
16
1M
1C
1?
1N
1D
1L
1A
1:
1&
#840000
0!
0"
0#
0$
03
08
07
06
0M
0J
0F
0C
0?
0H
0K
0N
0D
#845000
1!
1"
13
16
1M
1C
1?
1N
1D
0I
0L
0A
0@
0:
0;
0'
0&
#850000
0!
0"
1#
03
17
06
0M
1J
0C
0?
1K
0N
0D
#855000
1!
1"
1$
13
18
16
1M
1F
1C
1?
1H
1N
1D
1I
1L
1A
1@
1:
1;
1'
1&
#860000
0!
0"
0#
03
07
06
0M
0J
0C
0?
0K
0N
0D
#865000
1!
1"
13
16
1M
1C
1?
1N
1D
0L
0A
0:
0&
#870000
0!
0"
1#
0$
03
08
17
06
0M
1J
0F
0C
0?
0H
1K
0N
0D
#875000
1!
1"
13
16
1M
1C
1?
1N
1D
0I
1L
1A
0@
1:
0;
0'
1&
#880000
0!
0"
0#
03
07
06
0M
0J
0C
0?
0K
0N
0D
#885000
1!
1"
1$
13
18
16
1M
1F
1C
1?
1H
1N
1D
1I
0L
0A
1@
0:
1;
1'
0&
#890000
0!
0"
1#
03
17
06
0M
1J
0C
0?
1K
0N
0D
#895000
1!
1"
13
16
1M
1C
1?
1N
1D
1L
1A
1:
1&
#900000
0!
0"
0#
0$
03
08
07
06
0M
0J
0F
0C
0?
0H
0K
0N
0D
#905000
1!
1"
13
16
1M
1C
1?
1N
1D
0I
0L
0A
0@
0:
0;
0'
0&
#910000
0!
0"
1#
03
17
06
0M
1J
0C
0?
1K
0N
0D
#915000
1!
1"
1$
13
18
16
1M
1F
1C
1?
1H
1N
1D
1I
1L
1A
1@
1:
1;
1'
1&
#920000
0!
0"
0#
03
07
06
0M
0J
0C
0?
0K
0N
0D
#925000
1!
1"
13
16
1M
1C
1?
1N
1D
0L
0A
0:
0&
#930000
0!
0"
1#
0$
03
08
17
06
0M
1J
0F
0C
0?
0H
1K
0N
0D
#935000
1!
1"
13
16
1M
1C
1?
1N
1D
0I
1L
1A
0@
1:
0;
0'
1&
#940000
0!
0"
0#
03
07
06
0M
0J
0C
0?
0K
0N
0D
#945000
1!
1"
1$
13
18
16
1M
1F
1C
1?
1H
1N
1D
1I
0L
0A
1@
0:
1;
1'
0&
#950000
0!
0"
1#
03
17
06
0M
1J
0C
0?
1K
0N
0D
#955000
1!
1"
13
16
1M
1C
1?
1N
1D
1L
1A
1:
1&
#960000
0!
0"
0#
0$
03
08
07
06
0M
0J
0F
0C
0?
0H
0K
0N
0D
#965000
1!
1"
13
16
1M
1C
1?
1N
1D
0I
0L
0A
0@
0:
0;
0'
0&
#970000
0!
0"
1#
03
17
06
0M
1J
0C
0?
1K
0N
0D
#975000
1!
1"
1$
13
18
16
1M
1F
1C
1?
1H
1N
1D
1I
1L
1A
1@
1:
1;
1'
1&
#980000
0!
0"
0#
03
07
06
0M
0J
0C
0?
0K
0N
0D
#985000
1!
1"
13
16
1M
1C
1?
1N
1D
0L
0A
0:
0&
#990000
0!
0"
1#
0$
03
08
17
06
0M
1J
0F
0C
0?
0H
1K
0N
0D
#995000
1!
1"
13
16
1M
1C
1?
1N
1D
0I
1L
1A
0@
1:
0;
0'
1&
