VHDLcodes/015/simulation/qsim/StateMachine.msim.vcd
$comment
	File created using the following command:
		vcd file StateMachine.msim.vcd -direction
$end
$date
	Mon Jul 01 09:48:11 2024
$end
$version
	ModelSim Version 2020.1
$end
$timescale
	1ps
$end

$scope module statemachine_vhd_vec_tst $end
$var wire 1 ! clk $end
$var wire 1 " Q [1] $end
$var wire 1 # Q [0] $end
$var wire 1 $ rst $end

$scope module i1 $end
$var wire 1 % gnd $end
$var wire 1 & vcc $end
$var wire 1 ' unknown $end
$var wire 1 ( devoe $end
$var wire 1 ) devclrn $end
$var wire 1 * devpor $end
$var wire 1 + ww_devoe $end
$var wire 1 , ww_devclrn $end
$var wire 1 - ww_devpor $end
$var wire 1 . ww_clk $end
$var wire 1 / ww_rst $end
$var wire 1 0 \rst~inputclkctrl_INCLK_bus\ [3] $end
$var wire 1 1 \rst~inputclkctrl_INCLK_bus\ [2] $end
$var wire 1 2 \rst~inputclkctrl_INCLK_bus\ [1] $end
$var wire 1 3 \rst~inputclkctrl_INCLK_bus\ [0] $end
$var wire 1 4 \clk~inputclkctrl_INCLK_bus\ [3] $end
$var wire 1 5 \clk~inputclkctrl_INCLK_bus\ [2] $end
$var wire 1 6 \clk~inputclkctrl_INCLK_bus\ [1] $end
$var wire 1 7 \clk~inputclkctrl_INCLK_bus\ [0] $end
$var wire 1 8 \Q[0]~input_o\ $end
$var wire 1 9 \Q[1]~input_o\ $end
$var wire 1 : \Q[0]~output_o\ $end
$var wire 1 ; \Q[1]~output_o\ $end
$var wire 1 < \clk~input_o\ $end
$var wire 1 = \clk~inputclkctrl_outclk\ $end
$var wire 1 > \Q[1]~reg0feeder_combout\ $end
$var wire 1 ? \rst~input_o\ $end
$var wire 1 @ \rst~inputclkctrl_outclk\ $end
$var wire 1 A \Q[1]~reg0_q\ $end
$var wire 1 B \Q[0]~4_combout\ $end
$var wire 1 C \Q[0]~reg0_q\ $end
$var wire 1 D \ALT_INV_rst~inputclkctrl_outclk\ $end
$upscope $end
$upscope $end
$enddefinitions $end
#0
$dumpvars
0!
0$
0%
1&
x'
1(
1)
1*
1+
1,
1-
0.
0/
08
09
0:
0;
0<
0=
0>
0?
0@
0A
1B
0C
1D
0"
0#
14
15
16
07
10
11
12
03
$end
#5000
1!
1.
1<
17
1=
1C
1>
1:
1#
18
#10000
0!
0.
0<
07
0=
#15000
1!
1.
1<
17
1=
1A
0B
1;
1"
19
#20000
0!
0.
0<
07
0=
#25000
1!
1.
1<
17
1=
0C
0>
0:
0#
08
#30000
0!
0.
0<
07
0=
#35000
1!
1.
1<
17
1=
0A
1B
0;
0"
09
#40000
0!
0.
0<
07
0=
#45000
1!
1.
1<
17
1=
1C
1>
1:
1#
18
#50000
0!
0.
0<
07
0=
#55000
1!
1.
1<
17
1=
1A
0B
1;
1"
19
#60000
0!
0.
0<
07
0=
#65000
1!
1.
1<
17
1=
0C
0>
0:
0#
08
#70000
0!
0.
0<
07
0=
#75000
1!
1$
1.
1/
1?
1<
13
17
1=
1@
0D
0A
1B
0;
0"
09
#80000
0!
0.
0<
07
0=
#85000
1!
1.
1<
17
1=
#90000
0!
0.
0<
07
0=
#95000
1!
1.
1<
17
1=
#100000
0!
0.
0<
07
0=
#105000
1!
1.
1<
17
1=
#110000
0!
0.
0<
07
0=
#115000
1!
1.
1<
17
1=
#120000
0!
0.
0<
07
0=
#125000
1!
1.
1<
17
1=
#130000
0!
0.
0<
07
0=
#135000
1!
1.
1<
17
1=
#140000
0!
0.
0<
07
0=
#145000
1!
1.
1<
17
1=
#150000
0!
0$
0.
0/
0?
0<
03
07
0=
0@
1D
#155000
1!
1.
1<
17
1=
1C
1>
1:
1#
18
#160000
0!
0.
0<
07
0=
#165000
1!
1.
1<
17
1=
1A
0B
1;
1"
19
#170000
0!
0.
0<
07
0=
#175000
1!
1.
1<
17
1=
0C
0>
0:
0#
08
#180000
0!
0.
0<
07
0=
#185000
1!
1.
1<
17
1=
0A
1B
0;
0"
09
#190000
0!
0.
0<
07
0=
#195000
1!
1.
1<
17
1=
1C
1>
1:
1#
18
#200000
0!
0.
0<
07
0=
#205000
1!
1.
1<
17
1=
1A
0B
1;
1"
19
#210000
0!
0.
0<
07
0=
#215000
1!
1.
1<
17
1=
0C
0>
0:
0#
08
#220000
0!
0.
0<
07
0=
#225000
1!
1$
1.
1/
1?
1<
13
17
1=
1@
0D
0A
1B
0;
0"
09
#230000
0!
0.
0<
07
0=
#235000
1!
1.
1<
17
1=
#240000
0!
0.
0<
07
0=
#245000
1!
1.
1<
17
1=
#250000
0!
0.
0<
07
0=
#255000
1!
1.
1<
17
1=
#260000
0!
0.
0<
07
0=
#265000
1!
1.
1<
17
1=
#270000
0!
0.
0<
07
0=
#275000
1!
1.
1<
17
1=
#280000
0!
0.
0<
07
0=
#285000
1!
1.
1<
17
1=
#290000
0!
0.
0<
07
0=
#295000
1!
1.
1<
17
1=
#300000
0!
0$
0.
0/
0?
0<
03
07
0=
0@
1D
#305000
1!
1.
1<
17
1=
1C
1>
1:
1#
18
#310000
0!
0.
0<
07
0=
#315000
1!
1.
1<
17
1=
1A
0B
1;
1"
19
#320000
0!
0.
0<
07
0=
#325000
1!
1.
1<
17
1=
0C
0>
0:
0#
08
#330000
0!
0.
0<
07
0=
#335000
1!
1.
1<
17
1=
0A
1B
0;
0"
09
#340000
0!
0.
0<
07
0=
#345000
1!
1.
1<
17
1=
1C
1>
1:
1#
18
#350000
0!
0.
0<
07
0=
#355000
1!
1.
1<
17
1=
1A
0B
1;
1"
19
#360000
0!
0.
0<
07
0=
#365000
1!
1.
1<
17
1=
0C
0>
0:
0#
08
#370000
0!
0.
0<
07
0=
#375000
1!
1$
1.
1/
1?
1<
13
17
1=
1@
0D
0A
1B
0;
0"
09
#380000
0!
0.
0<
07
0=
#385000
1!
1.
1<
17
1=
#390000
0!
0.
0<
07
0=
#395000
1!
1.
1<
17
1=
#400000
0!
0.
0<
07
0=
#405000
1!
1.
1<
17
1=
#410000
0!
0.
0<
07
0=
#415000
1!
1.
1<
17
1=
#420000
0!
0.
0<
07
0=
#425000
1!
1.
1<
17
1=
#430000
0!
0.
0<
07
0=
#435000
1!
1.
1<
17
1=
#440000
0!
0.
0<
07
0=
#445000
1!
1.
1<
17
1=
#450000
0!
0$
0.
0/
0?
0<
03
07
0=
0@
1D
#455000
1!
1.
1<
17
1=
1C
1>
1:
1#
18
#460000
0!
0.
0<
07
0=
#465000
1!
1.
1<
17
1=
1A
0B
1;
1"
19
#470000
0!
0.
0<
07
0=
#475000
1!
1.
1<
17
1=
0C
0>
0:
0#
08
#480000
0!
0.
0<
07
0=
#485000
1!
1.
1<
17
1=
0A
1B
0;
0"
09
#490000
0!
0.
0<
07
0=
#495000
1!
1.
1<
17
1=
1C
1>
1:
1#
18
#500000
0!
0.
0<
07
0=
#505000
1!
1.
1<
17
1=
1A
0B
1;
1"
19
#510000
0!
0.
0<
07
0=
#515000
1!
1.
1<
17
1=
0C
0>
0:
0#
08
#520000
0!
0.
0<
07
0=
#525000
1!
1$
1.
1/
1?
1<
13
17
1=
1@
0D
0A
1B
0;
0"
09
#530000
0!
0.
0<
07
0=
#535000
1!
1.
1<
17
1=
#540000
0!
0.
0<
07
0=
#545000
1!
1.
1<
17
1=
#550000
0!
0.
0<
07
0=
#555000
1!
1.
1<
17
1=
#560000
0!
0.
0<
07
0=
#565000
1!
1.
1<
17
1=
#570000
0!
0.
0<
07
0=
#575000
1!
1.
1<
17
1=
#580000
0!
0.
0<
07
0=
#585000
1!
1.
1<
17
1=
#590000
0!
0.
0<
07
0=
#595000
1!
1.
1<
17
1=
#600000
0!
0$
0.
0/
0?
0<
03
07
0=
0@
1D
#605000
1!
1.
1<
17
1=
1C
1>
1:
1#
18
#610000
0!
0.
0<
07
0=
#615000
1!
1.
1<
17
1=
1A
0B
1;
1"
19
#620000
0!
0.
0<
07
0=
#625000
1!
1.
1<
17
1=
0C
0>
0:
0#
08
#630000
0!
0.
0<
07
0=
#635000
1!
1.
1<
17
1=
0A
1B
0;
0"
09
#640000
0!
0.
0<
07
0=
#645000
1!
1.
1<
17
1=
1C
1>
1:
1#
18
#650000
0!
0.
0<
07
0=
#655000
1!
1.
1<
17
1=
1A
0B
1;
1"
19
#660000
0!
0.
0<
07
0=
#665000
1!
1.
1<
17
1=
0C
0>
0:
0#
08
#670000
0!
0.
0<
07
0=
#675000
1!
1$
1.
1/
1?
1<
13
17
1=
1@
0D
0A
1B
0;
0"
09
#680000
0!
0.
0<
07
0=
#685000
1!
1.
1<
17
1=
#690000
0!
0.
0<
07
0=
#695000
1!
1.
1<
17
1=
#700000
0!
0.
0<
07
0=
#705000
1!
1.
1<
17
1=
#710000
0!
0.
0<
07
0=
#715000
1!
1.
1<
17
1=
#720000
0!
0.
0<
07
0=
#725000
1!
1.
1<
17
1=
#730000
0!
0.
0<
07
0=
#735000
1!
1.
1<
17
1=
#740000
0!
0.
0<
07
0=
#745000
1!
1.
1<
17
1=
#750000
0!
0$
0.
0/
0?
0<
03
07
0=
0@
1D
#755000
1!
1.
1<
17
1=
1C
1>
1:
1#
18
#760000
0!
0.
0<
07
0=
#765000
1!
1.
1<
17
1=
1A
0B
1;
1"
19
#770000
0!
0.
0<
07
0=
#775000
1!
1.
1<
17
1=
0C
0>
0:
0#
08
#780000
0!
0.
0<
07
0=
#785000
1!
1.
1<
17
1=
0A
1B
0;
0"
09
#790000
0!
0.
0<
07
0=
#795000
1!
1.
1<
17
1=
1C
1>
1:
1#
18
#800000
0!
0.
0<
07
0=
#805000
1!
1.
1<
17
1=
1A
0B
1;
1"
19
#810000
0!
0.
0<
07
0=
#815000
1!
1.
1<
17
1=
0C
0>
0:
0#
08
#820000
0!
0.
0<
07
0=
#825000
1!
1$
1.
1/
1?
1<
13
17
1=
1@
0D
0A
1B
0;
0"
09
#830000
0!
0.
0<
07
0=
#835000
1!
1.
1<
17
1=
#840000
0!
0.
0<
07
0=
#845000
1!
1.
1<
17
1=
#850000
0!
0.
0<
07
0=
#855000
1!
1.
1<
17
1=
#860000
0!
0.
0<
07
0=
#865000
1!
1.
1<
17
1=
#870000
0!
0.
0<
07
0=
#875000
1!
1.
1<
17
1=
#880000
0!
0.
0<
07
0=
#885000
1!
1.
1<
17
1=
#890000
0!
0.
0<
07
0=
#895000
1!
1.
1<
17
1=
#900000
0!
0$
0.
0/
0?
0<
03
07
0=
0@
1D
#905000
1!
1.
1<
17
1=
1C
1>
1:
1#
18
#910000
0!
0.
0<
07
0=
#915000
1!
1.
1<
17
1=
1A
0B
1;
1"
19
#920000
0!
0.
0<
07
0=
#925000
1!
1.
1<
17
1=
0C
0>
0:
0#
08
#930000
0!
0.
0<
07
0=
#935000
1!
1.
1<
17
1=
0A
1B
0;
0"
09
#940000
0!
0.
0<
07
0=
#945000
1!
1.
1<
17
1=
1C
1>
1:
1#
18
#950000
0!
0.
0<
07
0=
#955000
1!
1.
1<
17
1=
1A
0B
1;
1"
19
#960000
0!
0.
0<
07
0=
#965000
1!
1.
1<
17
1=
0C
0>
0:
0#
08
#970000
0!
0.
0<
07
0=
#975000
1!
1$
1.
1/
1?
1<
13
17
1=
1@
0D
0A
1B
0;
0"
09
#980000
0!
0.
0<
07
0=
#985000
1!
1.
1<
17
1=
#990000
0!
0.
0<
07
0=
#995000
1!
1.
1<
17
1=
