VHDLcodes/016/simulation/qsim/FiniteStateMachine.msim.vcd
$comment
	File created using the following command:
		vcd file FiniteStateMachine.msim.vcd -direction
$end
$date
	Mon Jul 01 10:56:06 2024
$end
$version
	ModelSim Version 2020.1
$end
$timescale
	1ps
$end

$scope module finitestatemachine_vhd_vec_tst $end
$var wire 1 ! clk $end
$var wire 1 " control $end
$var wire 1 # Q [1] $end
$var wire 1 $ Q [0] $end
$var wire 1 % rst $end

$scope module i1 $end
$var wire 1 & gnd $end
$var wire 1 ' vcc $end
$var wire 1 ( unknown $end
$var wire 1 ) devoe $end
$var wire 1 * devclrn $end
$var wire 1 + devpor $end
$var wire 1 , ww_devoe $end
$var wire 1 - ww_devclrn $end
$var wire 1 . ww_devpor $end
$var wire 1 / ww_clk $end
$var wire 1 0 ww_rst $end
$var wire 1 1 ww_control $end
$var wire 1 2 ww_Q [1] $end
$var wire 1 3 ww_Q [0] $end
$var wire 1 4 \rst~inputclkctrl_INCLK_bus\ [3] $end
$var wire 1 5 \rst~inputclkctrl_INCLK_bus\ [2] $end
$var wire 1 6 \rst~inputclkctrl_INCLK_bus\ [1] $end
$var wire 1 7 \rst~inputclkctrl_INCLK_bus\ [0] $end
$var wire 1 8 \clk~inputclkctrl_INCLK_bus\ [3] $end
$var wire 1 9 \clk~inputclkctrl_INCLK_bus\ [2] $end
$var wire 1 : \clk~inputclkctrl_INCLK_bus\ [1] $end
$var wire 1 ; \clk~inputclkctrl_INCLK_bus\ [0] $end
$var wire 1 < \Q[0]~output_o\ $end
$var wire 1 = \Q[1]~output_o\ $end
$var wire 1 > \clk~input_o\ $end
$var wire 1 ? \clk~inputclkctrl_outclk\ $end
$var wire 1 @ \control~input_o\ $end
$var wire 1 A \Selector3~0_combout\ $end
$var wire 1 B \rst~input_o\ $end
$var wire 1 C \rst~inputclkctrl_outclk\ $end
$var wire 1 D \state.case_0~q\ $end
$var wire 1 E \Selector2~0_combout\ $end
$var wire 1 F \state.case_1~q\ $end
$var wire 1 G \Selector1~0_combout\ $end
$var wire 1 H \state.case_2~q\ $end
$var wire 1 I \Selector0~0_combout\ $end
$var wire 1 J \state.case_3~q\ $end
$var wire 1 K \Q~0_combout\ $end
$var wire 1 L \Q~1_combout\ $end
$var wire 1 M \ALT_INV_rst~inputclkctrl_outclk\ $end
$var wire 1 N \ALT_INV_Q~1_combout\ $end
$var wire 1 O \ALT_INV_Q~0_combout\ $end
$upscope $end
$upscope $end
$enddefinitions $end
#0
$dumpvars
0!
1"
1%
0&
1'
x(
1)
1*
1+
1,
1-
1.
0/
10
11
0<
0=
0>
0?
1@
1A
1B
1C
0D
1E
0F
0G
0H
0I
0J
1K
1L
0M
0N
0O
0#
0$
02
03
18
19
1:
0;
14
15
16
17
$end
#5000
1!
1/
1>
1;
1?
#10000
0!
0/
0>
0;
0?
#15000
1!
1/
1>
1;
1?
#20000
0!
0/
0>
0;
0?
#25000
1!
1/
1>
1;
1?
#30000
0!
0/
0>
0;
0?
#35000
1!
1/
1>
1;
1?
#40000
0!
0/
0>
0;
0?
#45000
1!
1/
1>
1;
1?
#50000
0!
0/
0>
0;
0?
#55000
1!
1/
1>
1;
1?
#60000
0!
0/
0>
0;
0?
#65000
1!
1/
1>
1;
1?
#70000
0!
0/
0>
0;
0?
#75000
1!
1/
1>
1;
1?
#80000
0!
0/
0>
0;
0?
#85000
1!
1/
1>
1;
1?
#90000
0!
0/
0>
0;
0?
#95000
1!
1/
1>
1;
1?
#100000
0!
0%
0/
00
0B
0>
07
0;
0?
0C
1M
#105000
1!
1/
1>
1;
1?
1D
1F
1G
0E
0K
1O
1<
13
1$
#110000
0!
0/
0>
0;
0?
#115000
1!
1/
1>
1;
1?
0F
1H
1I
0G
0L
1N
1=
12
1#
#120000
0!
0/
0>
0;
0?
#125000
1!
1/
1>
1;
1?
0H
1J
0A
1K
0I
0O
0<
03
0$
#130000
0!
0/
0>
0;
0?
#135000
1!
1/
1>
1;
1?
0D
0J
1A
1E
1L
0N
0=
02
0#
#140000
0!
0/
0>
0;
0?
#145000
1!
1/
1>
1;
1?
1D
1F
1G
0E
0K
1O
1<
13
1$
#150000
0!
0/
0>
0;
0?
#155000
1!
1/
1>
1;
1?
0F
1H
1I
0G
0L
1N
1=
12
1#
#160000
0!
0/
0>
0;
0?
#165000
1!
1/
1>
1;
1?
0H
1J
0A
1K
0I
0O
0<
03
0$
#170000
0!
0/
0>
0;
0?
#175000
1!
1/
1>
1;
1?
0D
0J
1A
1E
1L
0N
0=
02
0#
#180000
0!
0/
0>
0;
0?
#185000
1!
1/
1>
1;
1?
1D
1F
1G
0E
0K
1O
1<
13
1$
#190000
0!
0/
0>
0;
0?
#195000
1!
1/
1>
1;
1?
0F
1H
1I
0G
0L
1N
1=
12
1#
#200000
0!
0/
0>
0;
0?
#205000
1!
1/
1>
1;
1?
0H
1J
0A
1K
0I
0O
0<
03
0$
#210000
0!
0/
0>
0;
0?
#215000
1!
1/
1>
1;
1?
0D
0J
1A
1E
1L
0N
0=
02
0#
#220000
0!
0/
0>
0;
0?
#225000
1!
1/
1>
1;
1?
1D
1F
1G
0E
0K
1O
1<
13
1$
#230000
0!
0/
0>
0;
0?
#235000
1!
1/
1>
1;
1?
0F
1H
1I
0G
0L
1N
1=
12
1#
#240000
0!
0/
0>
0;
0?
#245000
1!
1/
1>
1;
1?
0H
1J
0A
1K
0I
0O
0<
03
0$
#250000
0!
0/
0>
0;
0?
#255000
1!
1/
1>
1;
1?
0D
0J
1A
1E
1L
0N
0=
02
0#
#260000
0!
0/
0>
0;
0?
#265000
1!
1/
1>
1;
1?
1D
1F
1G
0E
0K
1O
1<
13
1$
#270000
0!
0/
0>
0;
0?
#275000
1!
1/
1>
1;
1?
0F
1H
1I
0G
0L
1N
1=
12
1#
#280000
0!
0/
0>
0;
0?
#285000
1!
1/
1>
1;
1?
0H
1J
0A
1K
0I
0O
0<
03
0$
#290000
0!
0/
0>
0;
0?
#295000
1!
1/
1>
1;
1?
0D
0J
1A
1E
1L
0N
0=
02
0#
#300000
0!
0/
0>
0;
0?
#305000
1!
1/
1>
1;
1?
1D
1F
1G
0E
0K
1O
1<
13
1$
#310000
0!
0/
0>
0;
0?
#315000
1!
1/
1>
1;
1?
0F
1H
1I
0G
0L
1N
1=
12
1#
#320000
0!
0/
0>
0;
0?
#325000
1!
1/
1>
1;
1?
0H
1J
0A
1K
0I
0O
0<
03
0$
#330000
0!
0/
0>
0;
0?
#335000
1!
1/
1>
1;
1?
0D
0J
1A
1E
1L
0N
0=
02
0#
#340000
0!
0/
0>
0;
0?
#345000
1!
1/
1>
1;
1?
1D
1F
1G
0E
0K
1O
1<
13
1$
#350000
0!
0/
0>
0;
0?
#355000
1!
1/
1>
1;
1?
0F
1H
1I
0G
0L
1N
1=
12
1#
#360000
0!
0/
0>
0;
0?
#365000
1!
1/
1>
1;
1?
0H
1J
0A
1K
0I
0O
0<
03
0$
#370000
0!
0/
0>
0;
0?
#375000
1!
1/
1>
1;
1?
0D
0J
1A
1E
1L
0N
0=
02
0#
#380000
0!
0/
0>
0;
0?
#385000
1!
1/
1>
1;
1?
1D
1F
1G
0E
0K
1O
1<
13
1$
#390000
0!
0/
0>
0;
0?
#395000
1!
1/
1>
1;
1?
0F
1H
1I
0G
0L
1N
1=
12
1#
#400000
0!
0/
0>
0;
0?
#405000
1!
1/
1>
1;
1?
0H
1J
0A
1K
0I
0O
0<
03
0$
#410000
0!
0/
0>
0;
0?
#415000
1!
1/
1>
1;
1?
0D
0J
1A
1E
1L
0N
0=
02
0#
#420000
0!
0/
0>
0;
0?
#425000
1!
1/
1>
1;
1?
1D
1F
1G
0E
0K
1O
1<
13
1$
#430000
0!
0/
0>
0;
0?
#435000
1!
1/
1>
1;
1?
0F
1H
1I
0G
0L
1N
1=
12
1#
#440000
0!
0/
0>
0;
0?
#445000
1!
1/
1>
1;
1?
0H
1J
0A
1K
0I
0O
0<
03
0$
#450000
0!
0/
0>
0;
0?
#455000
1!
1/
1>
1;
1?
0D
0J
1A
1E
1L
0N
0=
02
0#
#460000
0!
0/
0>
0;
0?
#465000
1!
1/
1>
1;
1?
1D
1F
1G
0E
0K
1O
1<
13
1$
#470000
0!
0/
0>
0;
0?
#475000
1!
1/
1>
1;
1?
0F
1H
1I
0G
0L
1N
1=
12
1#
#480000
0!
0/
0>
0;
0?
#485000
1!
1/
1>
1;
1?
0H
1J
0A
1K
0I
0O
0<
03
0$
#490000
0!
0"
0/
01
0@
0>
0;
1A
1G
0?
#495000
1!
1/
1>
1;
1?
1H
0J
0G
0K
1E
1O
1<
13
1$
#500000
0!
0/
0>
0;
0?
#505000
1!
1/
1>
1;
1?
1F
0H
0E
0A
1L
0N
0=
02
0#
#510000
0!
0/
0>
0;
0?
#515000
1!
1/
1>
1;
1?
0D
0F
1A
1I
1K
0O
0<
03
0$
#520000
0!
0/
0>
0;
0?
#525000
1!
1/
1>
1;
1?
1D
1J
1G
0I
0L
1N
1=
12
1#
#530000
0!
0/
0>
0;
0?
#535000
1!
1/
1>
1;
1?
1H
0J
0G
0K
1E
1O
1<
13
1$
#540000
0!
0/
0>
0;
0?
#545000
1!
1/
1>
1;
1?
1F
0H
0E
0A
1L
0N
0=
02
0#
#550000
0!
0/
0>
0;
0?
#555000
1!
1/
1>
1;
1?
0D
0F
1A
1I
1K
0O
0<
03
0$
#560000
0!
0/
0>
0;
0?
#565000
1!
1/
1>
1;
1?
1D
1J
1G
0I
0L
1N
1=
12
1#
#570000
0!
0/
0>
0;
0?
#575000
1!
1/
1>
1;
1?
1H
0J
0G
0K
1E
1O
1<
13
1$
#580000
0!
0/
0>
0;
0?
#585000
1!
1/
1>
1;
1?
1F
0H
0E
0A
1L
0N
0=
02
0#
#590000
0!
0/
0>
0;
0?
#595000
1!
1/
1>
1;
1?
0D
0F
1A
1I
1K
0O
0<
03
0$
#600000
0!
0/
0>
0;
0?
#605000
1!
1/
1>
1;
1?
1D
1J
1G
0I
0L
1N
1=
12
1#
#610000
0!
0/
0>
0;
0?
#615000
1!
1/
1>
1;
1?
1H
0J
0G
0K
1E
1O
1<
13
1$
#620000
0!
0/
0>
0;
0?
#625000
1!
1/
1>
1;
1?
1F
0H
0E
0A
1L
0N
0=
02
0#
#630000
0!
0/
0>
0;
0?
#635000
1!
1/
1>
1;
1?
0D
0F
1A
1I
1K
0O
0<
03
0$
#640000
0!
0/
0>
0;
0?
#645000
1!
1/
1>
1;
1?
1D
1J
1G
0I
0L
1N
1=
12
1#
#650000
0!
0/
0>
0;
0?
#655000
1!
1/
1>
1;
1?
1H
0J
0G
0K
1E
1O
1<
13
1$
#660000
0!
0/
0>
0;
0?
#665000
1!
1/
1>
1;
1?
1F
0H
0E
0A
1L
0N
0=
02
0#
#670000
0!
0/
0>
0;
0?
#675000
1!
1/
1>
1;
1?
0D
0F
1A
1I
1K
0O
0<
03
0$
#680000
0!
0/
0>
0;
0?
#685000
1!
1/
1>
1;
1?
1D
1J
1G
0I
0L
1N
1=
12
1#
#690000
0!
0/
0>
0;
0?
#695000
1!
1/
1>
1;
1?
1H
0J
0G
0K
1E
1O
1<
13
1$
#700000
0!
0/
0>
0;
0?
#705000
1!
1/
1>
1;
1?
1F
0H
0E
0A
1L
0N
0=
02
0#
#710000
0!
0/
0>
0;
0?
#715000
1!
1/
1>
1;
1?
0D
0F
1A
1I
1K
0O
0<
03
0$
#720000
0!
0/
0>
0;
0?
#725000
1!
1/
1>
1;
1?
1D
1J
1G
0I
0L
1N
1=
12
1#
#730000
0!
0/
0>
0;
0?
#735000
1!
1/
1>
1;
1?
1H
0J
0G
0K
1E
1O
1<
13
1$
#740000
0!
0/
0>
0;
0?
#745000
1!
1/
1>
1;
1?
1F
0H
0E
0A
1L
0N
0=
02
0#
#750000
0!
0/
0>
0;
0?
#755000
1!
1/
1>
1;
1?
0D
0F
1A
1I
1K
0O
0<
03
0$
#760000
0!
0/
0>
0;
0?
#765000
1!
1/
1>
1;
1?
1D
1J
1G
0I
0L
1N
1=
12
1#
#770000
0!
0/
0>
0;
0?
#775000
1!
1/
1>
1;
1?
1H
0J
0G
0K
1E
1O
1<
13
1$
#780000
0!
0/
0>
0;
0?
#785000
1!
1/
1>
1;
1?
1F
0H
0E
0A
1L
0N
0=
02
0#
#790000
0!
0/
0>
0;
0?
#795000
1!
1/
1>
1;
1?
0D
0F
1A
1I
1K
0O
0<
03
0$
#800000
0!
0/
0>
0;
0?
#805000
1!
1/
1>
1;
1?
1D
1J
1G
0I
0L
1N
1=
12
1#
#810000
0!
0/
0>
0;
0?
#815000
1!
1/
1>
1;
1?
1H
0J
0G
0K
1E
1O
1<
13
1$
#820000
0!
0/
0>
0;
0?
#825000
1!
1/
1>
1;
1?
1F
0H
0E
0A
1L
0N
0=
02
0#
#830000
0!
0/
0>
0;
0?
#835000
1!
1/
1>
1;
1?
0D
0F
1A
1I
1K
0O
0<
03
0$
#840000
0!
0/
0>
0;
0?
#845000
1!
1/
1>
1;
1?
1D
1J
1G
0I
0L
1N
1=
12
1#
#850000
0!
0/
0>
0;
0?
#855000
1!
1/
1>
1;
1?
1H
0J
0G
0K
1E
1O
1<
13
1$
#860000
0!
0/
0>
0;
0?
#865000
1!
1/
1>
1;
1?
1F
0H
0E
0A
1L
0N
0=
02
0#
#870000
0!
0/
0>
0;
0?
#875000
1!
1/
1>
1;
1?
0D
0F
1A
1I
1K
0O
0<
03
0$
#880000
0!
0/
0>
0;
0?
#885000
1!
1/
1>
1;
1?
1D
1J
1G
0I
0L
1N
1=
12
1#
#890000
0!
0/
0>
0;
0?
#895000
1!
1/
1>
1;
1?
1H
0J
0G
0K
1E
1O
1<
13
1$
#900000
0!
0/
0>
0;
0?
#905000
1!
1/
1>
1;
1?
1F
0H
0E
0A
1L
0N
0=
02
0#
#910000
0!
0/
0>
0;
0?
#915000
1!
1/
1>
1;
1?
0D
0F
1A
1I
1K
0O
0<
03
0$
#920000
0!
0/
0>
0;
0?
#925000
1!
1/
1>
1;
1?
1D
1J
1G
0I
0L
1N
1=
12
1#
#930000
0!
0/
0>
0;
0?
#935000
1!
1/
1>
1;
1?
1H
0J
0G
0K
1E
1O
1<
13
1$
#940000
0!
0/
0>
0;
0?
#945000
1!
1/
1>
1;
1?
1F
0H
0E
0A
1L
0N
0=
02
0#
#950000
0!
0/
0>
0;
0?
#955000
1!
1/
1>
1;
1?
0D
0F
1A
1I
1K
0O
0<
03
0$
#960000
0!
0/
0>
0;
0?
#965000
1!
1/
1>
1;
1?
1D
1J
1G
0I
0L
1N
1=
12
1#
#970000
0!
0/
0>
0;
0?
#975000
1!
1/
1>
1;
1?
1H
0J
0G
0K
1E
1O
1<
13
1$
#980000
0!
0/
0>
0;
0?
#985000
1!
1/
1>
1;
1?
1F
0H
0E
0A
1L
0N
0=
02
0#
#990000
0!
0/
0>
0;
0?
#995000
1!
1/
1>
1;
1?
0D
0F
1A
1I
1K
0O
0<
03
0$
